<?xml version="1.0" encoding="UTF-8" standalone="no"?>
<!-- Created with Inkscape (http://www.inkscape.org/) -->

<svg
   xmlns:dc="http://purl.org/dc/elements/1.1/"
   xmlns:cc="http://creativecommons.org/ns#"
   xmlns:rdf="http://www.w3.org/1999/02/22-rdf-syntax-ns#"
   xmlns:svg="http://www.w3.org/2000/svg"
   xmlns="http://www.w3.org/2000/svg"
   xmlns:sodipodi="http://sodipodi.sourceforge.net/DTD/sodipodi-0.dtd"
   xmlns:inkscape="http://www.inkscape.org/namespaces/inkscape"
   width="210mm"
   height="297mm"
   viewBox="0 0 210 297"
   version="1.1"
   id="svg10833"
   inkscape:version="0.92.4 5da689c313, 2019-01-14"
   sodipodi:docname="abs1.svg">
  <defs
     id="defs10827" />
  <sodipodi:namedview
     id="base"
     pagecolor="#ffffff"
     bordercolor="#666666"
     borderopacity="1.0"
     inkscape:pageopacity="0.0"
     inkscape:pageshadow="2"
     inkscape:zoom="5.6"
     inkscape:cx="222.80358"
     inkscape:cy="474.49383"
     inkscape:document-units="mm"
     inkscape:current-layer="layer1"
     showgrid="false"
     inkscape:window-width="1896"
     inkscape:window-height="1030"
     inkscape:window-x="10"
     inkscape:window-y="36"
     inkscape:window-maximized="1" />
  <metadata
     id="metadata10830">
    <rdf:RDF>
      <cc:Work
         rdf:about="">
        <dc:format>image/svg+xml</dc:format>
        <dc:type
           rdf:resource="http://purl.org/dc/dcmitype/StillImage" />
        <dc:title></dc:title>
      </cc:Work>
    </rdf:RDF>
  </metadata>
  <g
     inkscape:label="Layer 1"
     inkscape:groupmode="layer"
     id="layer1">
    <rect
       style="fill:#efecec;fill-opacity:1;stroke:#3d3230;stroke-width:0.06730315;stroke-linejoin:miter;stroke-miterlimit:4;stroke-dasharray:none;stroke-dashoffset:0;stroke-opacity:1;paint-order:normal"
       id="rect10854"
       width="29.275991"
       height="11.180484"
       x="28.743353"
       y="157.34433"
       ry="0.62113124"
       transform="matrix(1,8.7828049e-5,-6.3261604e-4,0.9999998,0,0)" />
    <path
       style="fill:none;stroke:#000000;stroke-width:0.065;stroke-linecap:butt;stroke-linejoin:miter;stroke-opacity:1;stroke-miterlimit:4;stroke-dasharray:none"
       d="M 28.608073,160.07812 H 57.92485"
       id="path11401"
       inkscape:connector-curvature="0" />
    <path
       style="fill:none;stroke:#000000;stroke-width:0.1;stroke-linecap:butt;stroke-linejoin:miter;stroke-miterlimit:4;stroke-dasharray:none;stroke-opacity:1"
       d="M 28.639274,162.12911 H 57.956052"
       id="path11401-7"
       inkscape:connector-curvature="0" />
    <path
       style="fill:none;stroke:#000000;stroke-width:0.065;stroke-linecap:butt;stroke-linejoin:miter;stroke-miterlimit:4;stroke-dasharray:none;stroke-opacity:1"
       d="M 28.605865,164.26727 H 57.922643"
       id="path11401-7-8"
       inkscape:connector-curvature="0" />
    <path
       style="fill:none;stroke:#000000;stroke-width:0.065;stroke-linecap:butt;stroke-linejoin:miter;stroke-miterlimit:4;stroke-dasharray:none;stroke-opacity:1"
       d="M 28.639274,166.40543 H 57.956052"
       id="path11401-7-4"
       inkscape:connector-curvature="0" />
    <rect
       style="fill:#c8b7b7;fill-opacity:1;stroke:#3d3230;stroke-width:0;stroke-linejoin:miter;stroke-miterlimit:4;stroke-dasharray:none;stroke-dashoffset:0;stroke-opacity:1;paint-order:normal"
       id="rect12070"
       width="10.557146"
       height="1.3029389"
       x="37.551369"
       y="158.08667"
       ry="0.62113053" />
    <text
       xml:space="preserve"
       style="font-style:normal;font-weight:normal;font-size:1.41111112px;line-height:1.25;font-family:sans-serif;letter-spacing:0px;word-spacing:0px;fill:#1a1a1a;fill-opacity:1;stroke:none;stroke-width:0.26458332;"
       x="38.319767"
       y="159.22253"
       id="text11451"
       inkscape:transform-center-x="1.2027129"
       inkscape:transform-center-y="-0.26726953"><tspan
         sodipodi:role="line"
         id="tspan11449"
         x="38.319767"
         y="159.22253"
         style="font-size:1.41111112px;stroke-width:0.26458332;fill:#1a1a1a;">VertexBuffer</tspan></text>
    <text
       xml:space="preserve"
       style="font-style:normal;font-weight:normal;font-size:0.88194454px;line-height:1.25;font-family:sans-serif;letter-spacing:0px;word-spacing:0px;fill:#1a1a1a;fill-opacity:1;stroke:none;stroke-width:0.26458332"
       x="29.42708"
       y="161.45247"
       id="text11451-0"
       inkscape:transform-center-x="1.2027129"
       inkscape:transform-center-y="-0.26726953"><tspan
         sodipodi:role="line"
         id="tspan11449-3"
         x="29.42708"
         y="161.45247"
         style="font-size:0.88194454px;fill:#1a1a1a;stroke-width:0.26458332">id : <tspan
   style="-inkscape-font-specification:'sans-serif Bold';font-family:sans-serif;font-weight:bold;font-style:normal;font-stretch:normal;font-variant:normal"
   id="tspan11527">unsigned</tspan></tspan></text>
    <text
       xml:space="preserve"
       style="font-style:normal;font-weight:normal;font-size:0.88194454px;line-height:1.25;font-family:sans-serif;letter-spacing:0px;word-spacing:0px;fill:#1a1a1a;fill-opacity:1;stroke:none;stroke-width:0.26458332"
       x="29.315939"
       y="163.5083"
       id="text11451-0-6"
       inkscape:transform-center-x="1.2027129"
       inkscape:transform-center-y="-0.26726953"><tspan
         sodipodi:role="line"
         id="tspan11449-3-1"
         x="29.315939"
         y="163.5083"
         style="font-size:0.88194454px;fill:#1a1a1a;stroke-width:0.26458332">VertexBuffer(data : <tspan
   style="font-style:normal;font-variant:normal;font-weight:bold;font-stretch:normal;font-family:sans-serif;-inkscape-font-specification:'sans-serif Bold'"
   id="tspan11529">const void*</tspan>, size : <tspan
   style="font-style:normal;font-variant:normal;font-weight:bold;font-stretch:normal;font-family:sans-serif;-inkscape-font-specification:'sans-serif Bold'"
   id="tspan11531">unsigned</tspan>)</tspan></text>
    <text
       xml:space="preserve"
       style="font-style:normal;font-weight:normal;font-size:0.88194454px;line-height:1.25;font-family:sans-serif;letter-spacing:0px;word-spacing:0px;fill:#1a1a1a;fill-opacity:1;stroke:none;stroke-width:0.26458332"
       x="29.28253"
       y="165.64648"
       id="text11451-0-0"
       inkscape:transform-center-x="1.2027129"
       inkscape:transform-center-y="-0.26726953"><tspan
         sodipodi:role="line"
         id="tspan11449-3-6"
         x="29.28253"
         y="165.64648"
         style="font-size:0.88194454px;fill:#1a1a1a;stroke-width:0.26458332">bind() const : <tspan
   style="-inkscape-font-specification:'sans-serif Bold';font-family:sans-serif;font-weight:bold;font-style:normal;font-stretch:normal;font-variant:normal"
   id="tspan11533">void</tspan></tspan></text>
    <text
       xml:space="preserve"
       style="font-style:normal;font-weight:normal;font-size:0.88194454px;line-height:1.25;font-family:sans-serif;letter-spacing:0px;word-spacing:0px;fill:#1a1a1a;fill-opacity:1;stroke:none;stroke-width:0.26458332"
       x="29.103088"
       y="167.68459"
       id="text11451-0-0-3"
       inkscape:transform-center-x="1.2027129"
       inkscape:transform-center-y="-0.26726953"><tspan
         sodipodi:role="line"
         id="tspan11449-3-6-2"
         x="29.103088"
         y="167.68459"
         style="font-size:0.88194454px;fill:#1a1a1a;stroke-width:0.26458332">unbind() const : <tspan
   style="-inkscape-font-specification:'sans-serif Bold';font-family:sans-serif;font-weight:bold;font-style:normal;font-stretch:normal;font-variant:normal"
   id="tspan11535">void</tspan></tspan></text>
    <path
       style="fill:#c8b7b7;fill-opacity:1;stroke:#3d3230;stroke-width:0.03102043;stroke-linejoin:miter;stroke-miterlimit:4;stroke-dasharray:none;stroke-dashoffset:0;stroke-opacity:1;paint-order:normal"
       d="m 108.38633,601.39894 c 0.0118,-5.08914 0.0822,-5.4759 1.12734,-6.18719 l 0.41743,-0.2841 h 53.60302 53.60302 l 0.53561,0.31389 c 0.35714,0.20929 0.6238,0.49606 0.80028,0.86061 0.2519,0.52036 0.26466,0.74273 0.26466,4.61061 v 4.06388 h -55.17958 -55.17958 z m 39.13724,-0.94702 c 0.298,-0.78129 0.646,-1.69043 0.77333,-2.02031 l 0.23151,-0.59977 -0.3454,10e-4 c -0.32551,10e-4 -0.37764,0.0882 -0.90524,1.50834 -0.30792,0.82883 -0.59658,1.48426 -0.64148,1.45651 -0.0449,-0.0278 -0.32723,-0.7065 -0.62741,-1.50834 -0.48316,-1.29063 -0.57978,-1.45789 -0.84218,-1.45789 -0.16303,0 -0.29751,0.0426 -0.29886,0.0947 -0.001,0.0521 0.32531,0.96122 0.72589,2.0203 0.6831,1.80598 0.74883,1.92561 1.05819,1.92561 0.30395,0 0.37236,-0.11148 0.87165,-1.42053 z m 3.28967,1.28982 c 0.32074,-0.17166 0.34282,-0.69811 0.0233,-0.55489 -0.12153,0.0545 -0.48286,0.12232 -0.80294,0.15077 -0.51401,0.0457 -0.61354,0.0116 -0.85232,-0.29196 -0.14869,-0.18903 -0.27034,-0.39285 -0.27034,-0.45293 0,-0.0601 0.48298,-0.10924 1.07329,-0.10924 h 1.07328 v -0.44639 c 0,-1.21117 -1.43588,-1.7451 -2.31876,-0.86222 -0.6208,0.6208 -0.55296,1.90173 0.12912,2.43825 0.36621,0.28807 1.50659,0.36345 1.94541,0.12861 z m 1.50879,-0.78474 c 0.002,-1.2023 0.17014,-1.52652 0.83584,-1.616 0.28316,-0.0381 0.57985,-0.0475 0.65931,-0.0211 0.089,0.0297 0.14514,0.37169 0.14621,0.88995 0.001,0.46299 0.0342,0.96272 0.0738,1.11051 0.0881,0.32815 0.54632,0.55204 1.12994,0.55204 0.35182,0 0.436,-0.0488 0.436,-0.25254 0,-0.18292 -0.0842,-0.25254 -0.30535,-0.25254 -0.64549,0 -0.7048,-0.0908 -0.7048,-1.07917 v -0.92589 l 0.47246,-0.0392 c 0.33018,-0.0274 0.48506,-0.10573 0.51433,-0.26016 0.0343,-0.18114 -0.0508,-0.22097 -0.47246,-0.22097 -0.50363,0 -0.51433,-0.009 -0.51433,-0.44194 0,-0.38723 -0.0391,-0.44194 -0.31568,-0.44194 -0.27735,0 -0.31567,0.0543 -0.31567,0.44766 0,0.44186 -0.006,0.4466 -0.43494,0.36607 -0.28381,-0.0533 -0.569,-0.0147 -0.82075,0.11087 -0.21219,0.10585 -0.38581,0.14 -0.38581,0.0759 0,-0.0641 -0.11364,-0.11659 -0.25253,-0.11659 -0.23851,0 -0.25254,0.0842 -0.25254,1.51523 0,1.43105 0.014,1.51523 0.25254,1.51523 0.22914,0 0.25271,-0.0848 0.2544,-0.91545 z m 6.11857,0.7443 c 0.32768,-0.23961 0.17223,-0.6518 -0.17561,-0.46564 -0.28181,0.15081 -1.14184,0.17318 -1.34867,0.0351 -0.13762,-0.0919 -0.42928,-0.57823 -0.42928,-0.71582 0,-0.0393 0.48298,-0.0714 1.07329,-0.0714 h 1.07329 v -0.38508 c 0,-1.25426 -1.42177,-1.82053 -2.31876,-0.92353 -0.6208,0.6208 -0.55297,1.90173 0.12912,2.43825 0.39278,0.30897 1.62051,0.36319 1.99662,0.0882 z m 1.49546,-0.33663 c 0.19549,-0.2763 0.40084,-0.50238 0.45634,-0.50238 0.0555,0 0.25842,0.22729 0.45093,0.50508 0.24124,0.34811 0.44278,0.50508 0.64851,0.50508 0.16418,0 0.2985,-0.0466 0.2985,-0.10347 0,-0.0569 -0.22728,-0.40809 -0.50507,-0.78042 -0.27779,-0.37232 -0.50508,-0.68484 -0.50508,-0.69448 0,-0.01 0.23081,-0.32609 0.51292,-0.70324 l 0.51291,-0.68572 -0.33644,-0.0412 c -0.21645,-0.0265 -0.39572,0.041 -0.50265,0.18941 -0.0914,0.12683 -0.2576,0.34424 -0.36929,0.48314 l -0.20307,0.25254 -0.1805,-0.25254 c -0.0993,-0.1389 -0.2568,-0.35685 -0.35006,-0.48434 -0.10966,-0.14992 -0.28868,-0.21683 -0.50674,-0.18941 l -0.33719,0.0424 0.51173,0.66913 0.51173,0.66912 -0.49197,0.6567 c -0.72903,0.97312 -0.7289,0.97275 -0.32563,0.96968 0.2682,-0.002 0.44137,-0.1252 0.71012,-0.50508 z m 4.68923,0.32906 c 0.74534,-0.31142 0.92439,-1.06225 0.39898,-1.67307 -0.26956,-0.31339 -0.2803,-0.36623 -0.10102,-0.49732 0.30542,-0.22333 0.25844,-1.00791 -0.0806,-1.34707 -0.23735,-0.23739 -0.44825,-0.28825 -1.35108,-0.32582 l -1.06983,-0.0445 v 2.03326 2.03327 h 0.88794 c 0.48836,0 1.08041,-0.0804 1.31566,-0.17872 z m 3.108,0.048 c 0.16836,-0.0901 0.24424,-0.0901 0.24424,0 0,0.0719 0.14205,0.13071 0.31567,0.13071 h 0.31567 v -1.51523 -1.51523 h -0.31567 c -0.31096,0 -0.31567,0.0154 -0.31567,1.03178 0,1.16802 -0.1701,1.4936 -0.78031,1.4936 -0.47253,0 -0.60865,-0.35482 -0.60865,-1.58658 0,-0.85462 -0.0226,-0.9388 -0.25254,-0.9388 -0.23538,0 -0.25254,0.0842 -0.25254,1.23888 0,1.07224 0.0346,1.27605 0.25746,1.51523 0.28113,0.30175 0.96665,0.37346 1.39234,0.14564 z m 2.39081,-1.13198 v -1.26269 h 0.63135 0.63134 v 1.26269 c 0,1.17851 0.0168,1.26269 0.25254,1.26269 0.2356,0 0.25254,-0.0842 0.25254,-1.25469 v -1.25469 l 0.40934,-0.0396 c 0.26959,-0.0261 0.42363,-0.11501 0.4512,-0.26054 0.0335,-0.17703 -0.0479,-0.22097 -0.40934,-0.22097 -0.4554,0 -0.51419,-0.0678 -0.37456,-0.43162 0.0491,-0.12782 0.23089,-0.19973 0.50508,-0.19973 0.34425,0 0.42843,-0.0496 0.42843,-0.25253 0,-0.21218 -0.0842,-0.25254 -0.5267,-0.25254 -0.63366,0 -0.98853,0.27899 -0.98853,0.77718 0,0.34756 -0.0208,0.35924 -0.64012,0.35924 -0.59162,0 -0.63707,-0.0215 -0.59978,-0.28411 0.0309,-0.21775 0.13619,-0.29334 0.45072,-0.32367 0.3081,-0.0297 0.41038,-0.10051 0.41038,-0.2841 0,-0.20038 -0.0896,-0.24454 -0.49606,-0.24454 -0.56755,0 -0.83636,0.21271 -0.95575,0.75631 -0.0459,0.20906 -0.16421,0.38011 -0.26286,0.38011 -0.0986,0 -0.17937,0.11364 -0.17937,0.25254 0,0.1403 0.0842,0.25254 0.1894,0.25254 0.15574,0 0.18941,0.22447 0.18941,1.26269 v 1.26269 h 0.31567 0.31567 z m 5.3116,1.13198 c 0.32075,-0.17166 0.34282,-0.69811 0.0233,-0.55489 -0.12153,0.0545 -0.48286,0.12232 -0.80294,0.15077 -0.51401,0.0457 -0.61355,0.0116 -0.85232,-0.29196 -0.14869,-0.18903 -0.27034,-0.39285 -0.27034,-0.45293 0,-0.0601 0.51396,-0.10924 1.14214,-0.10924 h 1.14214 l -0.083,-0.47351 c -0.11253,-0.64175 -0.34008,-0.97239 -0.80042,-1.16307 -1.54651,-0.64058 -2.77211,1.72146 -1.43781,2.77102 0.36023,0.28336 1.50467,0.35641 1.9393,0.12381 z m 1.53111,-0.93335 c 0.0636,-1.21238 0.20197,-1.46132 0.81203,-1.46132 0.37074,0 0.42648,-0.0413 0.42648,-0.31568 0,-0.37228 -0.35723,-0.42417 -0.91545,-0.13298 -0.19098,0.0996 -0.34724,0.12769 -0.34724,0.0624 0,-0.0653 -0.11364,-0.11878 -0.25254,-0.11878 -0.2385,0 -0.25253,0.0842 -0.25253,1.51523 0,1.39726 0.0184,1.51523 0.2367,1.51523 0.20828,0 0.24341,-0.12777 0.29255,-1.06406 z"
       id="path11551"
       inkscape:connector-curvature="0"
       transform="scale(0.26458333)" />
    <path
       style="fill:#c8b7b7;fill-opacity:1;stroke:#3d3230;stroke-width:0.03102043;stroke-linejoin:miter;stroke-miterlimit:4;stroke-dasharray:none;stroke-dashoffset:0;stroke-opacity:1;paint-order:normal"
       d="m 149.25532,600.01355 c 0.22416,-0.0279 0.62191,-0.0284 0.88389,-10e-4 0.26198,0.0273 0.0786,0.0502 -0.40756,0.0507 -0.48614,5.6e-4 -0.70048,-0.0218 -0.47633,-0.0497 z"
       id="path11553"
       inkscape:connector-curvature="0"
       transform="scale(0.26458333)" />
    <path
       style="fill:#c8b7b7;fill-opacity:1;stroke:#3d3230;stroke-width:0.02193476;stroke-linejoin:miter;stroke-miterlimit:4;stroke-dasharray:none;stroke-dashoffset:0;stroke-opacity:1;paint-order:normal"
       d="m 148.91832,599.89526 c 0,-0.04 0.10401,-0.19629 0.23115,-0.34738 0.30416,-0.36147 0.82586,-0.38653 1.15683,-0.0555 0.40351,0.40351 0.30884,0.48096 -0.58441,0.47814 -0.44197,-10e-4 -0.80357,-0.0353 -0.80357,-0.0752 z"
       id="path11555"
       inkscape:connector-curvature="0"
       transform="scale(0.26458333)" />
    <path
       style="fill:#c8b7b7;fill-opacity:1;stroke:#3d3230;stroke-width:0.00775511;stroke-linejoin:miter;stroke-miterlimit:4;stroke-dasharray:none;stroke-dashoffset:0;stroke-opacity:1;paint-order:normal"
       d="m 156.47587,599.94417 c 0.0556,-0.29669 0.26401,-0.56598 0.51118,-0.66038 0.19708,-0.0753 0.55207,-0.0738 0.70063,0.003 0.24744,0.12773 0.39988,0.34643 0.4323,0.6202 l 0.0184,0.15568 h -0.84236 -0.84236 z"
       id="path11557"
       inkscape:connector-curvature="0"
       transform="scale(0.26458333)" />
    <path
       style="fill:#c8b7b7;fill-opacity:1;stroke:#3d3230;stroke-width:0.00775511;stroke-linejoin:miter;stroke-miterlimit:4;stroke-dasharray:none;stroke-dashoffset:0;stroke-opacity:1;paint-order:normal"
       d="m 163.05412,598.92721 v -0.57441 l 0.56032,0.0104 c 0.49703,0.009 0.57278,0.0178 0.67069,0.0753 0.17756,0.1043 0.25265,0.24372 0.25265,0.46907 0,0.25773 -0.0725,0.38972 -0.26997,0.49139 -0.14039,0.0723 -0.19267,0.0792 -0.68286,0.0905 l -0.53083,0.0122 z"
       id="path11559"
       inkscape:connector-curvature="0"
       transform="scale(0.26458333)" />
    <path
       style="fill:#c8b7b7;fill-opacity:1;stroke:#3d3230;stroke-width:0.00775511;stroke-linejoin:miter;stroke-miterlimit:4;stroke-dasharray:none;stroke-dashoffset:0;stroke-opacity:1;paint-order:normal"
       d="m 163.05412,600.62724 v -0.698 l 0.56032,0.0134 c 0.59528,0.0143 0.72611,0.0427 0.88645,0.19239 0.25035,0.23375 0.25466,0.75141 0.008,0.99776 -0.16571,0.16571 -0.29251,0.1924 -0.91421,0.1924 h -0.54087 z"
       id="path11561"
       inkscape:connector-curvature="0"
       transform="scale(0.26458333)" />
    <path
       style="fill:#c8b7b7;fill-opacity:1;stroke:#3d3230;stroke-width:0.01096738;stroke-linejoin:miter;stroke-miterlimit:4;stroke-dasharray:none;stroke-dashoffset:0;stroke-opacity:1;paint-order:normal"
       d="m 173.51835,600.04052 c 0,-0.0238 0.0318,-0.13668 0.0707,-0.25081 0.22616,-0.66375 1.21728,-0.76245 1.50783,-0.15016 0.0403,0.0849 0.0733,0.20657 0.0733,0.27038 v 0.11602 l -0.45759,2.7e-4 c -0.25167,1.5e-4 -0.62332,0.0132 -0.82589,0.0289 -0.22791,0.0177 -0.36831,0.0122 -0.36831,-0.0146 z"
       id="path11563"
       inkscape:connector-curvature="0"
       transform="scale(0.26458333)" />
    <rect
       style="fill:#efecec;fill-opacity:1;stroke:#3d3230;stroke-width:0.07841352;stroke-linejoin:miter;stroke-miterlimit:4;stroke-dasharray:none;stroke-dashoffset:0;stroke-opacity:1;paint-order:normal"
       id="rect10854-0"
       width="29.27599"
       height="15.176504"
       x="28.756388"
       y="169.86423"
       ry="0.84312993"
       transform="matrix(0.99999999,1.1921871e-4,-4.6604634e-4,0.99999989,0,0)" />
    <path
       style="fill:none;stroke:#000000;stroke-width:0.065;stroke-linecap:butt;stroke-linejoin:miter;stroke-miterlimit:4;stroke-dasharray:none;stroke-opacity:1"
       d="M 28.641482,172.59896 H 57.958259"
       id="path11401-6"
       inkscape:connector-curvature="0" />
    <path
       style="fill:none;stroke:#000000;stroke-width:0.065;stroke-linecap:butt;stroke-linejoin:miter;stroke-miterlimit:4;stroke-dasharray:none;stroke-opacity:1"
       d="M 28.672683,174.64995 H 57.989462"
       id="path11401-7-1"
       inkscape:connector-curvature="0" />
    <path
       style="fill:none;stroke:#000000;stroke-width:0.1;stroke-linecap:butt;stroke-linejoin:miter;stroke-miterlimit:4;stroke-dasharray:none;stroke-opacity:1"
       d="M 28.639274,176.78811 H 57.956053"
       id="path11401-7-8-5"
       inkscape:connector-curvature="0" />
    <path
       style="fill:none;stroke:#000000;stroke-width:0.065;stroke-linecap:butt;stroke-linejoin:miter;stroke-miterlimit:4;stroke-dasharray:none;stroke-opacity:1"
       d="M 28.62949,178.89286 H 57.946268"
       id="path11401-7-4-5"
       inkscape:connector-curvature="0" />
    <text
       xml:space="preserve"
       style="font-style:normal;font-weight:normal;font-size:1.41111112px;line-height:1.25;font-family:sans-serif;letter-spacing:0px;word-spacing:0px;fill:#1a1a1a;fill-opacity:1;stroke:none;stroke-width:0.26458332"
       x="38.353176"
       y="171.74336"
       id="text11451-4"
       inkscape:transform-center-x="1.2027129"
       inkscape:transform-center-y="-0.26726953"><tspan
         sodipodi:role="line"
         id="tspan11449-7"
         x="38.353176"
         y="171.74336"
         style="font-size:1.41111112px;fill:#1a1a1a;stroke-width:0.26458332">VertexBuffer</tspan></text>
    <text
       xml:space="preserve"
       style="font-style:normal;font-weight:normal;font-size:0.88194454px;line-height:1.25;font-family:sans-serif;letter-spacing:0px;word-spacing:0px;fill:#1a1a1a;fill-opacity:1;stroke:none;stroke-width:0.26458332"
       x="29.460485"
       y="173.9733"
       id="text11451-0-65"
       inkscape:transform-center-x="1.2027129"
       inkscape:transform-center-y="-0.26726953"><tspan
         sodipodi:role="line"
         id="tspan11449-3-69"
         x="29.460485"
         y="173.9733"
         style="font-size:0.88194454px;fill:#1a1a1a;stroke-width:0.26458332">id : <tspan
   style="font-style:normal;font-variant:normal;font-weight:bold;font-stretch:normal;font-family:sans-serif;-inkscape-font-specification:'sans-serif Bold';stroke-width:0.26458332"
   id="tspan11527-3">unsigned</tspan></tspan></text>
    <text
       xml:space="preserve"
       style="font-style:normal;font-weight:normal;font-size:0.88194454px;line-height:1.25;font-family:sans-serif;letter-spacing:0px;word-spacing:0px;fill:#1a1a1a;fill-opacity:1;stroke:none;stroke-width:0.26458332"
       x="29.293991"
       y="178.13162"
       id="text11451-0-6-7"
       inkscape:transform-center-x="1.2027129"
       inkscape:transform-center-y="-0.26726953"><tspan
         sodipodi:role="line"
         id="tspan11449-3-1-4"
         x="29.293991"
         y="178.13162"
         style="font-size:0.88194454px;fill:#1a1a1a;stroke-width:0.26458332">IndexBuffer(data : <tspan
   style="font-style:normal;font-variant:normal;font-weight:bold;font-stretch:normal;font-family:sans-serif;-inkscape-font-specification:'sans-serif Bold';stroke-width:0.26458332"
   id="tspan11529-5">const unsigned</tspan>, count : <tspan
   style="font-style:normal;font-variant:normal;font-weight:bold;font-stretch:normal;font-family:sans-serif;-inkscape-font-specification:'sans-serif Bold';stroke-width:0.26458332"
   id="tspan11531-2">unsigned</tspan>)</tspan></text>
    <text
       xml:space="preserve"
       style="font-style:normal;font-weight:normal;font-size:0.88194454px;line-height:1.25;font-family:sans-serif;letter-spacing:0px;word-spacing:0px;fill:#1a1a1a;fill-opacity:1;stroke:none;stroke-width:0.26458332"
       x="29.197817"
       y="180.10445"
       id="text11451-0-0-5"
       inkscape:transform-center-x="1.2027129"
       inkscape:transform-center-y="-0.26726953"><tspan
         sodipodi:role="line"
         id="tspan11449-3-6-4"
         x="29.197817"
         y="180.10445"
         style="font-size:0.88194454px;fill:#1a1a1a;stroke-width:0.26458332">bind() const : <tspan
   style="font-style:normal;font-variant:normal;font-weight:bold;font-stretch:normal;font-family:sans-serif;-inkscape-font-specification:'sans-serif Bold';stroke-width:0.26458332"
   id="tspan11533-7">void</tspan></tspan></text>
    <text
       xml:space="preserve"
       style="font-style:normal;font-weight:normal;font-size:0.88194454px;line-height:1.25;font-family:sans-serif;letter-spacing:0px;word-spacing:0px;fill:#1a1a1a;fill-opacity:1;stroke:none;stroke-width:0.26458332"
       x="29.152012"
       y="182.14255"
       id="text11451-0-0-3-4"
       inkscape:transform-center-x="1.2027129"
       inkscape:transform-center-y="-0.26726953"><tspan
         sodipodi:role="line"
         id="tspan11449-3-6-2-4"
         x="29.152012"
         y="182.14255"
         style="font-size:0.88194454px;fill:#1a1a1a;stroke-width:0.26458332">unbind() const : <tspan
   style="font-style:normal;font-variant:normal;font-weight:bold;font-stretch:normal;font-family:sans-serif;-inkscape-font-specification:'sans-serif Bold';stroke-width:0.26458332"
   id="tspan11535-3">void</tspan></tspan></text>
    <path
       style="fill:#c8b7b7;fill-opacity:1;stroke:#3d3230;stroke-width:0.00820749;stroke-linejoin:miter;stroke-miterlimit:4;stroke-dasharray:none;stroke-dashoffset:0;stroke-opacity:1;paint-order:normal"
       d="m 39.523879,171.27442 c 0.05931,-0.007 0.164547,-0.008 0.233862,-2.6e-4 0.06932,0.007 0.0208,0.0133 -0.107833,0.0134 -0.128625,1.5e-4 -0.185336,-0.006 -0.126029,-0.0131 z"
       id="path11553-7"
       inkscape:connector-curvature="0" />
    <path
       style="fill:#c8b7b7;fill-opacity:1;stroke:#3d3230;stroke-width:0.00580357;stroke-linejoin:miter;stroke-miterlimit:4;stroke-dasharray:none;stroke-dashoffset:0;stroke-opacity:1;paint-order:normal"
       d="m 39.434714,171.24313 c 0,-0.0106 0.02752,-0.0519 0.06116,-0.0919 0.08047,-0.0956 0.218508,-0.10227 0.306078,-0.0147 0.106762,0.10676 0.08171,0.12725 -0.154626,0.12651 -0.116938,-2.7e-4 -0.212611,-0.009 -0.212611,-0.0199 z"
       id="path11555-8"
       inkscape:connector-curvature="0" />
    <path
       style="fill:#c8b7b7;fill-opacity:1;stroke:#3d3230;stroke-width:0.00205187;stroke-linejoin:miter;stroke-miterlimit:4;stroke-dasharray:none;stroke-dashoffset:0;stroke-opacity:1;paint-order:normal"
       d="m 41.434316,171.25607 c 0.01471,-0.0785 0.06985,-0.14975 0.13525,-0.17473 0.05214,-0.0199 0.146068,-0.0195 0.185375,7.9e-4 0.06547,0.0338 0.105801,0.0917 0.114379,0.1641 l 0.0049,0.0412 h -0.222874 -0.222874 z"
       id="path11557-6"
       inkscape:connector-curvature="0" />
    <path
       style="fill:#c8b7b7;fill-opacity:1;stroke:#3d3230;stroke-width:0.00205187;stroke-linejoin:miter;stroke-miterlimit:4;stroke-dasharray:none;stroke-dashoffset:0;stroke-opacity:1;paint-order:normal"
       d="m 43.174811,170.987 v -0.15198 l 0.148252,0.003 c 0.131505,0.002 0.151548,0.005 0.177453,0.0199 0.04698,0.0276 0.06685,0.0645 0.06685,0.12411 0,0.0682 -0.01918,0.10311 -0.07143,0.13001 -0.03714,0.0191 -0.05098,0.021 -0.180673,0.024 l -0.140449,0.003 z"
       id="path11559-8"
       inkscape:connector-curvature="0" />
    <path
       style="fill:#c8b7b7;fill-opacity:1;stroke:#3d3230;stroke-width:0.00205187;stroke-linejoin:miter;stroke-miterlimit:4;stroke-dasharray:none;stroke-dashoffset:0;stroke-opacity:1;paint-order:normal"
       d="m 43.174811,171.43679 v -0.18467 l 0.148252,0.004 c 0.157501,0.004 0.192116,0.0113 0.234539,0.0509 0.06624,0.0618 0.06738,0.19881 0.0021,0.26399 -0.04384,0.0438 -0.07739,0.0509 -0.241885,0.0509 h -0.143105 z"
       id="path11561-8"
       inkscape:connector-curvature="0" />
    <path
       style="fill:#c8b7b7;fill-opacity:1;stroke:#3d3230;stroke-width:0.00290179;stroke-linejoin:miter;stroke-miterlimit:4;stroke-dasharray:none;stroke-dashoffset:0;stroke-opacity:1;paint-order:normal"
       d="m 45.943472,171.28156 c 0,-0.006 0.0084,-0.0362 0.01871,-0.0664 0.05984,-0.17562 0.322072,-0.20173 0.398947,-0.0397 0.01066,0.0225 0.01939,0.0547 0.01939,0.0715 v 0.0307 l -0.121071,7e-5 c -0.06659,4e-5 -0.16492,0.003 -0.218517,0.008 -0.0603,0.005 -0.09745,0.003 -0.09745,-0.004 z"
       id="path11563-4"
       inkscape:connector-curvature="0" />
    <rect
       style="fill:#c8b7b7;fill-opacity:1;stroke:#3d3230;stroke-width:0;stroke-linejoin:miter;stroke-miterlimit:4;stroke-dasharray:none;stroke-dashoffset:0;stroke-opacity:1;paint-order:normal"
       id="rect11662"
       width="12.461441"
       height="1.9209995"
       x="36.650478"
       y="170.29401"
       ry="0.686827" />
    <rect
       style="fill:#efecec;fill-opacity:1;stroke:#3d3230;stroke-width:0.06730315;stroke-linejoin:miter;stroke-miterlimit:4;stroke-dasharray:none;stroke-dashoffset:0;stroke-opacity:1;paint-order:normal"
       id="rect10854-0-3"
       width="29.27599"
       height="11.180484"
       x="182.95796"
       y="157.4904"
       ry="0.62113124"
       transform="matrix(1,8.782805e-5,-6.326161e-4,0.9999998,0,0)" />
    <path
       style="fill:none;stroke:#000000;stroke-width:0.065;stroke-linecap:butt;stroke-linejoin:miter;stroke-miterlimit:4;stroke-dasharray:none;stroke-opacity:1"
       d="m 182.82259,160.23775 h 29.31678"
       id="path11401-6-1"
       inkscape:connector-curvature="0" />
    <path
       style="fill:none;stroke:#000000;stroke-width:0.065;stroke-linecap:butt;stroke-linejoin:miter;stroke-miterlimit:4;stroke-dasharray:none;stroke-opacity:1"
       d="m 182.85379,162.28874 h 29.31678"
       id="path11401-7-1-4"
       inkscape:connector-curvature="0" />
    <path
       style="fill:none;stroke:#000000;stroke-width:0.065;stroke-linecap:butt;stroke-linejoin:miter;stroke-miterlimit:4;stroke-dasharray:none;stroke-opacity:1"
       d="m 182.82038,164.4269 h 29.31678"
       id="path11401-7-8-5-9"
       inkscape:connector-curvature="0" />
    <path
       style="fill:none;stroke:#000000;stroke-width:0.065;stroke-linecap:butt;stroke-linejoin:miter;stroke-miterlimit:4;stroke-dasharray:none;stroke-opacity:1"
       d="m 182.78697,166.53165 h 29.31678"
       id="path11401-7-4-5-2"
       inkscape:connector-curvature="0" />
    <text
       xml:space="preserve"
       style="font-style:normal;font-weight:normal;font-size:1.41111112px;line-height:1.25;font-family:sans-serif;letter-spacing:0px;word-spacing:0px;fill:#1a1a1a;fill-opacity:1;stroke:none;stroke-width:0.26458332"
       x="192.53429"
       y="159.38216"
       id="text11451-4-0"
       inkscape:transform-center-x="1.2027129"
       inkscape:transform-center-y="-0.26726953"><tspan
         sodipodi:role="line"
         id="tspan11449-7-6"
         x="192.53429"
         y="159.38216"
         style="font-size:1.41111112px;fill:#1a1a1a;stroke-width:0.26458332">VertexBuffer</tspan></text>
    <text
       xml:space="preserve"
       style="font-style:normal;font-weight:normal;font-size:0.88194454px;line-height:1.25;font-family:sans-serif;letter-spacing:0px;word-spacing:0px;fill:#1a1a1a;fill-opacity:1;stroke:none;stroke-width:0.26458332"
       x="183.6416"
       y="161.61209"
       id="text11451-0-65-8"
       inkscape:transform-center-x="1.2027129"
       inkscape:transform-center-y="-0.26726953"><tspan
         sodipodi:role="line"
         id="tspan11449-3-69-9"
         x="183.6416"
         y="161.61209"
         style="font-size:0.88194454px;fill:#1a1a1a;stroke-width:0.26458332">id : <tspan
   style="font-style:normal;font-variant:normal;font-weight:bold;font-stretch:normal;font-family:sans-serif;-inkscape-font-specification:'sans-serif Bold';stroke-width:0.26458332"
   id="tspan11527-3-2">unsigned</tspan></tspan></text>
    <text
       xml:space="preserve"
       style="font-style:normal;font-weight:normal;font-size:0.88194454px;line-height:1.25;font-family:sans-serif;letter-spacing:0px;word-spacing:0px;fill:#1a1a1a;fill-opacity:1;stroke:none;stroke-width:0.26458332"
       x="183.53046"
       y="163.5677"
       id="text11451-0-6-7-6"
       inkscape:transform-center-x="1.2027129"
       inkscape:transform-center-y="-0.26726953"><tspan
         sodipodi:role="line"
         id="tspan11449-3-1-4-6"
         x="183.53046"
         y="163.5677"
         style="font-size:0.88194454px;fill:#1a1a1a;stroke-width:0.26458332">VertexBuffer(data : <tspan
   style="font-style:normal;font-variant:normal;font-weight:bold;font-stretch:normal;font-family:sans-serif;-inkscape-font-specification:'sans-serif Bold';stroke-width:0.26458332"
   id="tspan11529-5-4">const void*</tspan>, size : <tspan
   style="font-style:normal;font-variant:normal;font-weight:bold;font-stretch:normal;font-family:sans-serif;-inkscape-font-specification:'sans-serif Bold';stroke-width:0.26458332"
   id="tspan11531-2-9">unsigned</tspan>)</tspan></text>
    <text
       xml:space="preserve"
       style="font-style:normal;font-weight:normal;font-size:0.88194454px;line-height:1.25;font-family:sans-serif;letter-spacing:0px;word-spacing:0px;fill:#1a1a1a;fill-opacity:1;stroke:none;stroke-width:0.26458332"
       x="183.49704"
       y="165.80611"
       id="text11451-0-0-5-5"
       inkscape:transform-center-x="1.2027129"
       inkscape:transform-center-y="-0.26726953"><tspan
         sodipodi:role="line"
         id="tspan11449-3-6-4-0"
         x="183.49704"
         y="165.80611"
         style="font-size:0.88194454px;fill:#1a1a1a;stroke-width:0.26458332">bind() const : <tspan
   style="font-style:normal;font-variant:normal;font-weight:bold;font-stretch:normal;font-family:sans-serif;-inkscape-font-specification:'sans-serif Bold';stroke-width:0.26458332"
   id="tspan11533-7-4">void</tspan></tspan></text>
    <text
       xml:space="preserve"
       style="font-style:normal;font-weight:normal;font-size:0.88194454px;line-height:1.25;font-family:sans-serif;letter-spacing:0px;word-spacing:0px;fill:#1a1a1a;fill-opacity:1;stroke:none;stroke-width:0.26458332"
       x="183.31761"
       y="167.84421"
       id="text11451-0-0-3-4-8"
       inkscape:transform-center-x="1.2027129"
       inkscape:transform-center-y="-0.26726953"><tspan
         sodipodi:role="line"
         id="tspan11449-3-6-2-4-7"
         x="183.31761"
         y="167.84421"
         style="font-size:0.88194454px;fill:#1a1a1a;stroke-width:0.26458332">unbind() const : <tspan
   style="font-style:normal;font-variant:normal;font-weight:bold;font-stretch:normal;font-family:sans-serif;-inkscape-font-specification:'sans-serif Bold';stroke-width:0.26458332"
   id="tspan11535-3-1">void</tspan></tspan></text>
    <path
       style="fill:#c8b7b7;fill-opacity:1;stroke:#3d3230;stroke-width:0.00820749;stroke-linejoin:miter;stroke-miterlimit:4;stroke-dasharray:none;stroke-dashoffset:0;stroke-opacity:1;paint-order:normal"
       d="m 182.89173,159.27976 c 0.003,-1.3465 0.0217,-1.44883 0.29828,-1.63702 l 0.11044,-0.0752 h 14.18247 14.18247 l 0.14171,0.0831 c 0.0945,0.0554 0.16505,0.13125 0.21174,0.2277 0.0666,0.13768 0.07,0.19652 0.07,1.21989 v 1.07524 h -14.5996 -14.5996 z m 10.35507,-0.25056 c 0.0788,-0.20672 0.17092,-0.44726 0.20461,-0.53454 l 0.0613,-0.15869 -0.0914,2.6e-4 c -0.0861,2.7e-4 -0.0999,0.0233 -0.23952,0.39908 -0.0815,0.2193 -0.15784,0.39272 -0.16972,0.38537 -0.0119,-0.007 -0.0866,-0.18693 -0.166,-0.39908 -0.12783,-0.34148 -0.1534,-0.38573 -0.22282,-0.38573 -0.0431,0 -0.0787,0.0113 -0.0791,0.025 -2.7e-4,0.0138 0.0861,0.25433 0.19206,0.53454 0.18073,0.47783 0.19812,0.50949 0.27997,0.50949 0.0804,0 0.0985,-0.0295 0.23063,-0.37585 z m 0.87039,0.34126 c 0.0849,-0.0454 0.0907,-0.18471 0.006,-0.14681 -0.0322,0.0144 -0.12776,0.0324 -0.21245,0.0399 -0.136,0.0121 -0.16233,0.003 -0.22551,-0.0773 -0.0393,-0.05 -0.0715,-0.10394 -0.0715,-0.11984 0,-0.0159 0.12779,-0.0289 0.28398,-0.0289 h 0.28397 v -0.11811 c 0,-0.32045 -0.37991,-0.46172 -0.61351,-0.22813 -0.16425,0.16426 -0.1463,0.50317 0.0342,0.64512 0.0969,0.0762 0.39862,0.0962 0.51473,0.034 z m 0.3992,-0.20763 c 5.3e-4,-0.3181 0.045,-0.40389 0.22115,-0.42756 0.0749,-0.0101 0.15342,-0.0126 0.17444,-0.006 0.0236,0.008 0.0384,0.0983 0.0387,0.23546 2.6e-4,0.1225 0.009,0.25472 0.0195,0.29383 0.0233,0.0868 0.14455,0.14606 0.29896,0.14606 0.0931,0 0.11536,-0.0129 0.11536,-0.0668 0,-0.0484 -0.0223,-0.0668 -0.0808,-0.0668 -0.17079,0 -0.18648,-0.024 -0.18648,-0.28553 v -0.24498 l 0.12501,-0.0104 c 0.0874,-0.007 0.12834,-0.028 0.13608,-0.0688 0.009,-0.0479 -0.0134,-0.0585 -0.125,-0.0585 -0.13326,0 -0.13609,-0.002 -0.13609,-0.11693 0,-0.10245 -0.0104,-0.11693 -0.0835,-0.11693 -0.0734,0 -0.0835,0.0144 -0.0835,0.11844 0,0.11691 -0.002,0.11817 -0.11508,0.0969 -0.0751,-0.0141 -0.15054,-0.004 -0.21715,0.0293 -0.0561,0.028 -0.10208,0.037 -0.10208,0.0201 0,-0.017 -0.0301,-0.0308 -0.0668,-0.0308 -0.0631,0 -0.0668,0.0223 -0.0668,0.4009 0,0.37864 0.004,0.40091 0.0668,0.40091 0.0606,0 0.0669,-0.0224 0.0673,-0.24222 z m 1.61887,0.19693 c 0.0867,-0.0634 0.0456,-0.17245 -0.0465,-0.1232 -0.0746,0.0399 -0.30211,0.0458 -0.35684,0.009 -0.0364,-0.0243 -0.11358,-0.15299 -0.11358,-0.18939 0,-0.0104 0.12779,-0.0189 0.28398,-0.0189 h 0.28397 v -0.10189 c 0,-0.33186 -0.37617,-0.48168 -0.6135,-0.24435 -0.16426,0.16425 -0.14631,0.50316 0.0342,0.64512 0.10392,0.0817 0.42876,0.0961 0.52827,0.0233 z m 0.39567,-0.0891 c 0.0517,-0.0731 0.10606,-0.13293 0.12074,-0.13293 0.0147,0 0.0684,0.0601 0.11931,0.13364 0.0638,0.0921 0.11715,0.13364 0.17159,0.13364 0.0434,0 0.079,-0.0123 0.079,-0.0274 0,-0.0151 -0.0601,-0.10797 -0.13364,-0.20649 -0.0735,-0.0985 -0.13363,-0.18119 -0.13363,-0.18374 0,-0.003 0.0611,-0.0863 0.13571,-0.18607 l 0.13571,-0.18143 -0.089,-0.0109 c -0.0573,-0.007 -0.10471,0.0109 -0.133,0.0501 -0.0242,0.0336 -0.0682,0.0911 -0.0977,0.12783 l -0.0537,0.0668 -0.0478,-0.0668 c -0.0263,-0.0368 -0.0679,-0.0944 -0.0926,-0.12814 -0.029,-0.0397 -0.0764,-0.0574 -0.13407,-0.0501 l -0.0892,0.0112 0.13539,0.17704 0.1354,0.17704 -0.13017,0.17375 c -0.19289,0.25747 -0.19285,0.25737 -0.0862,0.25656 0.071,-5.3e-4 0.11678,-0.0331 0.18789,-0.13363 z m 1.2407,0.0871 c 0.1972,-0.0824 0.24457,-0.28105 0.10556,-0.44267 -0.0713,-0.0829 -0.0742,-0.0969 -0.0267,-0.13158 0.0808,-0.0591 0.0684,-0.26668 -0.0213,-0.35641 -0.0628,-0.0628 -0.1186,-0.0763 -0.35747,-0.0862 l -0.28306,-0.0118 v 0.53797 0.53796 h 0.23493 c 0.12921,0 0.28586,-0.0213 0.3481,-0.0473 z m 0.82232,0.0127 c 0.0445,-0.0238 0.0646,-0.0238 0.0646,0 0,0.019 0.0376,0.0346 0.0835,0.0346 h 0.0835 v -0.4009 -0.40091 h -0.0835 c -0.0823,0 -0.0835,0.004 -0.0835,0.273 0,0.30904 -0.045,0.39518 -0.20646,0.39518 -0.12502,0 -0.16103,-0.0939 -0.16103,-0.41978 0,-0.22612 -0.006,-0.2484 -0.0668,-0.2484 -0.0623,0 -0.0668,0.0223 -0.0668,0.32779 0,0.2837 0.009,0.33762 0.0681,0.40091 0.0744,0.0798 0.25575,0.0988 0.36839,0.0385 z m 0.63257,-0.2995 v -0.33409 h 0.16704 0.16705 v 0.33409 c 0,0.31181 0.004,0.33408 0.0668,0.33408 0.0623,0 0.0668,-0.0223 0.0668,-0.33197 v -0.33197 l 0.1083,-0.0105 c 0.0713,-0.007 0.11209,-0.0304 0.11938,-0.0689 0.009,-0.0468 -0.0127,-0.0585 -0.1083,-0.0585 -0.1205,0 -0.13605,-0.0179 -0.0991,-0.1142 0.013,-0.0338 0.0611,-0.0529 0.13363,-0.0529 0.0911,0 0.11336,-0.0131 0.11336,-0.0668 0,-0.0561 -0.0223,-0.0668 -0.13936,-0.0668 -0.16765,0 -0.26155,0.0738 -0.26155,0.20563 0,0.092 -0.005,0.0951 -0.16936,0.0951 -0.15654,0 -0.16856,-0.006 -0.15869,-0.0752 0.008,-0.0576 0.036,-0.0776 0.11925,-0.0856 0.0815,-0.008 0.10858,-0.0266 0.10858,-0.0752 0,-0.053 -0.0237,-0.0647 -0.13125,-0.0647 -0.15017,0 -0.22129,0.0563 -0.25288,0.20011 -0.0121,0.0553 -0.0434,0.10057 -0.0695,0.10057 -0.0261,0 -0.0475,0.0301 -0.0475,0.0668 0,0.0371 0.0223,0.0668 0.0501,0.0668 0.0412,0 0.0501,0.0594 0.0501,0.33409 v 0.33409 h 0.0835 0.0835 z m 1.40536,0.2995 c 0.0849,-0.0454 0.0907,-0.18471 0.006,-0.14681 -0.0322,0.0144 -0.12776,0.0324 -0.21245,0.0399 -0.13599,0.0121 -0.16233,0.003 -0.2255,-0.0773 -0.0393,-0.05 -0.0715,-0.10394 -0.0715,-0.11984 0,-0.0159 0.13598,-0.0289 0.30219,-0.0289 h 0.30215 l -0.022,-0.12528 c -0.0298,-0.1698 -0.09,-0.25728 -0.21177,-0.30773 -0.40918,-0.16949 -0.73346,0.45547 -0.38042,0.73316 0.0953,0.075 0.39811,0.0943 0.5131,0.0328 z m 0.40511,-0.24695 c 0.0168,-0.32077 0.0534,-0.38664 0.21485,-0.38664 0.0981,0 0.11283,-0.0109 0.11283,-0.0835 0,-0.0985 -0.0945,-0.11223 -0.24221,-0.0352 -0.0505,0.0264 -0.0919,0.0338 -0.0919,0.0165 0,-0.0173 -0.0301,-0.0314 -0.0668,-0.0314 -0.0631,0 -0.0668,0.0223 -0.0668,0.4009 0,0.36969 0.005,0.4009 0.0626,0.4009 0.0551,0 0.0644,-0.0338 0.0774,-0.28153 z"
       id="path11551-0-7"
       inkscape:connector-curvature="0" />
    <path
       style="fill:#c8b7b7;fill-opacity:1;stroke:#3d3230;stroke-width:0.00820749;stroke-linejoin:miter;stroke-miterlimit:4;stroke-dasharray:none;stroke-dashoffset:0;stroke-opacity:1;paint-order:normal"
       d="m 193.70499,158.91321 c 0.0593,-0.007 0.16454,-0.008 0.23386,-2.6e-4 0.0693,0.007 0.0208,0.0133 -0.10783,0.0134 -0.12863,1.5e-4 -0.18534,-0.006 -0.12603,-0.0131 z"
       id="path11553-7-2"
       inkscape:connector-curvature="0" />
    <path
       style="fill:#c8b7b7;fill-opacity:1;stroke:#3d3230;stroke-width:0.00580357;stroke-linejoin:miter;stroke-miterlimit:4;stroke-dasharray:none;stroke-dashoffset:0;stroke-opacity:1;paint-order:normal"
       d="m 193.61582,158.88192 c 0,-0.0106 0.0275,-0.0519 0.0612,-0.0919 0.0805,-0.0956 0.21851,-0.10227 0.30608,-0.0147 0.10676,0.10676 0.0817,0.12725 -0.15463,0.12651 -0.11693,-2.7e-4 -0.21261,-0.009 -0.21261,-0.0199 z"
       id="path11555-8-7"
       inkscape:connector-curvature="0" />
    <path
       style="fill:#c8b7b7;fill-opacity:1;stroke:#3d3230;stroke-width:0.00205187;stroke-linejoin:miter;stroke-miterlimit:4;stroke-dasharray:none;stroke-dashoffset:0;stroke-opacity:1;paint-order:normal"
       d="m 195.61542,158.89486 c 0.0147,-0.0785 0.0699,-0.14975 0.13525,-0.17473 0.0521,-0.0199 0.14607,-0.0195 0.18538,7.9e-4 0.0655,0.0338 0.1058,0.0917 0.11438,0.1641 l 0.005,0.0412 h -0.22288 -0.22287 z"
       id="path11557-6-2"
       inkscape:connector-curvature="0" />
    <path
       style="fill:#c8b7b7;fill-opacity:1;stroke:#3d3230;stroke-width:0.00205187;stroke-linejoin:miter;stroke-miterlimit:4;stroke-dasharray:none;stroke-dashoffset:0;stroke-opacity:1;paint-order:normal"
       d="m 197.35592,158.62579 v -0.15198 l 0.14825,0.003 c 0.13151,0.002 0.15155,0.005 0.17745,0.0199 0.047,0.0276 0.0668,0.0645 0.0668,0.12411 0,0.0682 -0.0192,0.10311 -0.0714,0.13001 -0.0371,0.0191 -0.051,0.021 -0.18067,0.024 l -0.14045,0.003 z"
       id="path11559-8-2"
       inkscape:connector-curvature="0" />
    <path
       style="fill:#c8b7b7;fill-opacity:1;stroke:#3d3230;stroke-width:0.00205187;stroke-linejoin:miter;stroke-miterlimit:4;stroke-dasharray:none;stroke-dashoffset:0;stroke-opacity:1;paint-order:normal"
       d="m 197.35592,159.07558 v -0.18467 l 0.14825,0.004 c 0.1575,0.004 0.19212,0.0113 0.23454,0.0509 0.0662,0.0618 0.0674,0.19881 0.002,0.26399 -0.0438,0.0438 -0.0774,0.0509 -0.24188,0.0509 h -0.14311 z"
       id="path11561-8-6"
       inkscape:connector-curvature="0" />
    <path
       style="fill:#c8b7b7;fill-opacity:1;stroke:#3d3230;stroke-width:0.00290179;stroke-linejoin:miter;stroke-miterlimit:4;stroke-dasharray:none;stroke-dashoffset:0;stroke-opacity:1;paint-order:normal"
       d="m 200.12458,158.92035 c 0,-0.006 0.008,-0.0362 0.0187,-0.0664 0.0598,-0.17562 0.32207,-0.20173 0.39895,-0.0397 0.0107,0.0225 0.0194,0.0547 0.0194,0.0715 v 0.0307 l -0.12108,7e-5 c -0.0666,4e-5 -0.16492,0.003 -0.21851,0.008 -0.0603,0.005 -0.0974,0.003 -0.0974,-0.004 z"
       id="path11563-4-1"
       inkscape:connector-curvature="0" />
    <rect
       style="fill:#c8b7b7;fill-opacity:1;stroke:#3d3230;stroke-width:0;stroke-linejoin:miter;stroke-miterlimit:4;stroke-dasharray:none;stroke-dashoffset:0;stroke-opacity:1;paint-order:normal"
       id="rect11662-0"
       width="11.158504"
       height="1.7372519"
       x="191.19794"
       y="157.98643"
       ry="0.62113053" />
    <text
       xml:space="preserve"
       style="font-style:normal;font-weight:normal;font-size:1.41111112px;line-height:1.25;font-family:sans-serif;letter-spacing:0px;word-spacing:0px;fill:#1a1a1a;fill-opacity:1;stroke:none;stroke-width:0.26458332;"
       x="38.319771"
       y="171.78423"
       id="text11762"><tspan
         sodipodi:role="line"
         id="tspan11760"
         x="38.319771"
         y="171.78423"
         style="font-size:1.41111112px;stroke-width:0.26458332;fill:#1a1a1a;">IndexBuffer</tspan></text>
    <path
       style="fill:none;stroke:#000000;stroke-width:0.065;stroke-linecap:butt;stroke-linejoin:miter;stroke-miterlimit:4;stroke-dasharray:none;stroke-opacity:1"
       d="M 28.619886,180.91406 H 57.936664"
       id="path11401-7-4-5-6"
       inkscape:connector-curvature="0" />
    <path
       style="fill:none;stroke:#000000;stroke-width:0.065;stroke-linecap:butt;stroke-linejoin:miter;stroke-miterlimit:4;stroke-dasharray:none;stroke-opacity:1"
       d="M 28.690755,182.92206 H 58.007533"
       id="path11401-7-4-5-6-1"
       inkscape:connector-curvature="0" />
    <text
       xml:space="preserve"
       style="font-style:normal;font-weight:normal;font-size:0.88194454px;line-height:1.25;font-family:sans-serif;letter-spacing:0px;word-spacing:0px;fill:#1a1a1a;fill-opacity:1;stroke:none;stroke-width:0.26458332"
       x="29.448988"
       y="176.03313"
       id="text11451-0-65-85"
       inkscape:transform-center-x="1.2027129"
       inkscape:transform-center-y="-0.26726953"><tspan
         sodipodi:role="line"
         id="tspan11449-3-69-0"
         x="29.448988"
         y="176.03313"
         style="font-size:0.88194454px;fill:#1a1a1a;stroke-width:0.26458332">count : <tspan
   style="font-style:normal;font-variant:normal;font-weight:bold;font-stretch:normal;font-family:sans-serif;-inkscape-font-specification:'sans-serif Bold';stroke-width:0.26458332"
   id="tspan11527-3-9">unsigned</tspan></tspan></text>
    <text
       xml:space="preserve"
       style="font-style:normal;font-weight:normal;font-size:0.88194454px;line-height:1.25;font-family:sans-serif;letter-spacing:0px;word-spacing:0px;fill:#1a1a1a;fill-opacity:1;stroke:none;stroke-width:0.26458332"
       x="29.166344"
       y="184.25529"
       id="text11451-0-0-3-4-63"
       inkscape:transform-center-x="1.2027129"
       inkscape:transform-center-y="-0.26726953"><tspan
         sodipodi:role="line"
         id="tspan11449-3-6-2-4-8"
         x="29.166344"
         y="184.25529"
         style="font-size:0.88194454px;fill:#1a1a1a;stroke-width:0.26458332">get_count() const : <tspan
   style="-inkscape-font-specification:'sans-serif Bold';font-family:sans-serif;font-weight:bold;font-style:normal;font-stretch:normal;font-variant:normal"
   id="tspan11941">unsigned</tspan></tspan></text>
    <rect
       style="fill:#efecec;fill-opacity:1;stroke:#3d3230;stroke-width:0.07542846;stroke-linejoin:miter;stroke-miterlimit:4;stroke-dasharray:none;stroke-dashoffset:0;stroke-opacity:1;paint-order:normal"
       id="rect10854-0-6"
       width="29.27599"
       height="14.04301"
       x="59.993153"
       y="155.95779"
       ry="0.78015876"
       transform="matrix(0.99999999,1.1031457e-4,-5.0366227e-4,0.99999987,0,0)" />
    <path
       style="fill:none;stroke:#000000;stroke-width:0.065;stroke-linecap:butt;stroke-linejoin:miter;stroke-miterlimit:4;stroke-dasharray:none;stroke-opacity:1"
       d="M 59.878863,158.69572 H 89.195635"
       id="path11401-6-11"
       inkscape:connector-curvature="0" />
    <path
       style="fill:none;stroke:#000000;stroke-width:0.1;stroke-linecap:butt;stroke-linejoin:miter;stroke-miterlimit:4;stroke-dasharray:none;stroke-opacity:1"
       d="M 59.910064,160.74671 H 89.226845"
       id="path11401-7-1-5"
       inkscape:connector-curvature="0" />
    <path
       style="fill:none;stroke:#000000;stroke-width:0.065;stroke-linecap:butt;stroke-linejoin:miter;stroke-miterlimit:4;stroke-dasharray:none;stroke-opacity:1"
       d="m 59.876655,162.88487 h 29.31678"
       id="path11401-7-8-5-98"
       inkscape:connector-curvature="0" />
    <path
       style="fill:none;stroke:#000000;stroke-width:0.065;stroke-linecap:butt;stroke-linejoin:miter;stroke-miterlimit:4;stroke-dasharray:none;stroke-opacity:1"
       d="M 59.866871,164.98962 H 89.183645"
       id="path11401-7-4-5-4"
       inkscape:connector-curvature="0" />
    <text
       xml:space="preserve"
       style="font-style:normal;font-weight:normal;font-size:1.41111112px;line-height:1.25;font-family:sans-serif;letter-spacing:0px;word-spacing:0px;fill:#1a1a1a;fill-opacity:1;stroke:none;stroke-width:0.26458332"
       x="69.590553"
       y="157.8401"
       id="text11451-4-8"
       inkscape:transform-center-x="1.2027129"
       inkscape:transform-center-y="-0.26726953"><tspan
         sodipodi:role="line"
         id="tspan11449-7-1"
         x="69.590553"
         y="157.8401"
         style="font-size:1.41111112px;fill:#1a1a1a;stroke-width:0.26458332">VertexBuffer</tspan></text>
    <text
       xml:space="preserve"
       style="font-style:normal;font-weight:normal;font-size:0.88194454px;line-height:1.25;font-family:sans-serif;letter-spacing:0px;word-spacing:0px;fill:#1a1a1a;fill-opacity:1;stroke:none;stroke-width:0.26458332"
       x="60.697857"
       y="160.07004"
       id="text11451-0-65-0"
       inkscape:transform-center-x="1.2027129"
       inkscape:transform-center-y="-0.26726953"><tspan
         sodipodi:role="line"
         id="tspan11449-3-69-3"
         x="60.697857"
         y="160.07004"
         style="font-size:0.88194454px;fill:#1a1a1a;stroke-width:0.26458332">id : <tspan
   style="font-style:normal;font-variant:normal;font-weight:bold;font-stretch:normal;font-family:sans-serif;-inkscape-font-specification:'sans-serif Bold';stroke-width:0.26458332"
   id="tspan11527-3-0">unsigned</tspan></tspan></text>
    <text
       xml:space="preserve"
       style="font-style:normal;font-weight:normal;font-size:0.88194454px;line-height:1.25;font-family:sans-serif;letter-spacing:0px;word-spacing:0px;fill:#1a1a1a;fill-opacity:1;stroke:none;stroke-width:0.26458332"
       x="60.56477"
       y="162.12363"
       id="text11451-0-6-7-4"
       inkscape:transform-center-x="1.2027129"
       inkscape:transform-center-y="-0.26726953"><tspan
         sodipodi:role="line"
         id="tspan11449-3-1-4-4"
         x="60.56477"
         y="162.12363"
         style="font-size:0.88194454px;fill:#1a1a1a;stroke-width:0.26458332">VertexArray()</tspan></text>
    <text
       xml:space="preserve"
       style="font-style:normal;font-weight:normal;font-size:0.88194454px;line-height:1.25;font-family:sans-serif;letter-spacing:0px;word-spacing:0px;fill:#1a1a1a;fill-opacity:1;stroke:none;stroke-width:0.26458332"
       x="60.535419"
       y="164.19667"
       id="text11451-0-0-5-3"
       inkscape:transform-center-x="1.2027129"
       inkscape:transform-center-y="-0.26726953"><tspan
         sodipodi:role="line"
         id="tspan11449-3-6-4-1"
         x="60.535419"
         y="164.19667"
         style="font-size:0.88194454px;fill:#1a1a1a;stroke-width:0.26458332">bind() const : <tspan
   style="font-style:normal;font-variant:normal;font-weight:bold;font-stretch:normal;font-family:sans-serif;-inkscape-font-specification:'sans-serif Bold';stroke-width:0.26458332"
   id="tspan11533-7-7">void</tspan></tspan></text>
    <text
       xml:space="preserve"
       style="font-style:normal;font-weight:normal;font-size:0.88194454px;line-height:1.25;font-family:sans-serif;letter-spacing:0px;word-spacing:0px;fill:#1a1a1a;fill-opacity:1;stroke:none;stroke-width:0.26458332"
       x="60.489613"
       y="166.20135"
       id="text11451-0-0-3-4-5"
       inkscape:transform-center-x="1.2027129"
       inkscape:transform-center-y="-0.26726953"><tspan
         sodipodi:role="line"
         id="tspan11449-3-6-2-4-9"
         x="60.489613"
         y="166.20135"
         style="font-size:0.88194454px;fill:#1a1a1a;stroke-width:0.26458332">unbind() const : <tspan
   style="font-style:normal;font-variant:normal;font-weight:bold;font-stretch:normal;font-family:sans-serif;-inkscape-font-specification:'sans-serif Bold';stroke-width:0.26458332"
   id="tspan11535-3-62">void</tspan></tspan></text>
    <path
       style="fill:#c8b7b7;fill-opacity:1;stroke:#3d3230;stroke-width:0.00820749;stroke-linejoin:miter;stroke-miterlimit:4;stroke-dasharray:none;stroke-dashoffset:0;stroke-opacity:1;paint-order:normal"
       d="m 70.761265,157.37118 c 0.0593,-0.007 0.16454,-0.008 0.23386,-2.6e-4 0.0693,0.007 0.0208,0.0133 -0.10784,0.0134 -0.12862,1.5e-4 -0.18533,-0.006 -0.12602,-0.0131 z"
       id="path11553-7-1"
       inkscape:connector-curvature="0" />
    <path
       style="fill:#c8b7b7;fill-opacity:1;stroke:#3d3230;stroke-width:0.00580357;stroke-linejoin:miter;stroke-miterlimit:4;stroke-dasharray:none;stroke-dashoffset:0;stroke-opacity:1;paint-order:normal"
       d="m 70.672095,157.33989 c 0,-0.0106 0.0275,-0.0519 0.0612,-0.0919 0.0805,-0.0956 0.21851,-0.10227 0.30608,-0.0147 0.10676,0.10676 0.0817,0.12725 -0.15463,0.12651 -0.11694,-2.7e-4 -0.21261,-0.009 -0.21261,-0.0199 z"
       id="path11555-8-78"
       inkscape:connector-curvature="0" />
    <path
       style="fill:#c8b7b7;fill-opacity:1;stroke:#3d3230;stroke-width:0.00205187;stroke-linejoin:miter;stroke-miterlimit:4;stroke-dasharray:none;stroke-dashoffset:0;stroke-opacity:1;paint-order:normal"
       d="m 72.671695,157.35283 c 0.0147,-0.0785 0.0699,-0.14975 0.13525,-0.17473 0.0521,-0.0199 0.14607,-0.0195 0.18538,7.9e-4 0.0655,0.0338 0.1058,0.0917 0.11438,0.1641 l 0.005,0.0412 h -0.22288 -0.22287 z"
       id="path11557-6-5"
       inkscape:connector-curvature="0" />
    <path
       style="fill:#c8b7b7;fill-opacity:1;stroke:#3d3230;stroke-width:0.00205187;stroke-linejoin:miter;stroke-miterlimit:4;stroke-dasharray:none;stroke-dashoffset:0;stroke-opacity:1;paint-order:normal"
       d="m 74.412195,157.08376 v -0.15198 l 0.14825,0.003 c 0.1315,0.002 0.15155,0.005 0.17745,0.0199 0.047,0.0276 0.0669,0.0645 0.0669,0.12411 0,0.0682 -0.0192,0.10311 -0.0714,0.13001 -0.0371,0.0191 -0.051,0.021 -0.18067,0.024 l -0.14045,0.003 z"
       id="path11559-8-7"
       inkscape:connector-curvature="0" />
    <path
       style="fill:#c8b7b7;fill-opacity:1;stroke:#3d3230;stroke-width:0.00205187;stroke-linejoin:miter;stroke-miterlimit:4;stroke-dasharray:none;stroke-dashoffset:0;stroke-opacity:1;paint-order:normal"
       d="m 74.412195,157.53355 v -0.18467 l 0.14825,0.004 c 0.1575,0.004 0.19212,0.0113 0.23454,0.0509 0.0662,0.0618 0.0674,0.19881 0.002,0.26399 -0.0438,0.0438 -0.0774,0.0509 -0.24189,0.0509 h -0.1431 z"
       id="path11561-8-4"
       inkscape:connector-curvature="0" />
    <path
       style="fill:#c8b7b7;fill-opacity:1;stroke:#3d3230;stroke-width:0.00290179;stroke-linejoin:miter;stroke-miterlimit:4;stroke-dasharray:none;stroke-dashoffset:0;stroke-opacity:1;paint-order:normal"
       d="m 77.180855,157.37832 c 0,-0.006 0.008,-0.0362 0.0187,-0.0664 0.0598,-0.17562 0.32207,-0.20173 0.39895,-0.0397 0.0107,0.0225 0.0194,0.0547 0.0194,0.0715 v 0.0307 l -0.12107,7e-5 c -0.0666,4e-5 -0.16492,0.003 -0.21852,0.008 -0.0603,0.005 -0.0974,0.003 -0.0974,-0.004 z"
       id="path11563-4-18"
       inkscape:connector-curvature="0" />
    <path
       style="fill:none;stroke:#000000;stroke-width:0.065;stroke-linecap:butt;stroke-linejoin:miter;stroke-miterlimit:4;stroke-dasharray:none;stroke-opacity:1"
       d="M 59.857267,167.01082 H 89.174045"
       id="path11401-7-4-5-6-5"
       inkscape:connector-curvature="0" />
    <path
       style="fill:#c8b7b7;fill-opacity:1;stroke:#3d3230;stroke-width:0;stroke-linejoin:miter;stroke-miterlimit:4;stroke-dasharray:none;stroke-dashoffset:0;stroke-opacity:1;paint-order:normal"
       d="m 108.54914,648.38237 c 0.0385,-3.55533 0.0595,-3.85896 0.30436,-4.38785 0.31885,-0.68875 0.97224,-1.28611 1.71242,-1.56555 0.50758,-0.19163 4.61315,-0.20497 53.33039,-0.17335 l 52.78047,0.0343 0.50508,0.27255 c 0.64659,0.3489 1.12697,0.85766 1.4118,1.49522 0.19698,0.44092 0.23115,0.99026 0.26899,4.32472 l 0.0433,3.81964 h -55.19908 -55.19909 z m 72.14618,1.81453 c 0.6437,-0.2924 1.1467,-0.88461 1.33022,-1.56616 0.0804,-0.29868 0.12257,-1.11258 0.0967,-1.86792 -0.0413,-1.20678 -0.0799,-1.39011 -0.3919,-1.86156 -0.19033,-0.28762 -0.58749,-0.65192 -0.88257,-0.80955 l -0.5365,-0.2866 H 160.9921 141.67293 l -0.52601,0.28125 c -0.57358,0.30668 -0.93334,0.74444 -1.15931,1.41066 -0.18067,0.53267 -0.18941,2.56461 -0.0137,3.1971 0.17444,0.62812 0.6923,1.2199 1.31504,1.50278 0.48792,0.22162 1.35226,0.23179 19.7032,0.23179 18.35094,0 19.21528,-0.0102 19.7032,-0.23179 z"
       id="path12068"
       inkscape:connector-curvature="0"
       transform="scale(0.26458333)" />
    <text
       xml:space="preserve"
       style="font-style:normal;font-weight:normal;font-size:4.58611107px;line-height:1.25;font-family:sans-serif;letter-spacing:0px;word-spacing:0px;fill:#000000;fill-opacity:1;stroke:none;stroke-width:0.26458332"
       x="63.276062"
       y="169.77971"
       id="text12074"><tspan
         sodipodi:role="line"
         id="tspan12072"
         x="63.276062"
         y="173.83734"
         style="stroke-width:0.26458332" /></text>
    <text
       xml:space="preserve"
       style="font-style:normal;font-weight:normal;font-size:0.88194454px;line-height:1.25;font-family:sans-serif;letter-spacing:0px;word-spacing:0px;fill:#1a1a1a;fill-opacity:1;stroke:none;stroke-width:0.26458332"
       x="60.509426"
       y="168.25211"
       id="text11451-0-0-3-4-5-6"
       inkscape:transform-center-x="1.2027129"
       inkscape:transform-center-y="-0.26726953"><tspan
         sodipodi:role="line"
         id="tspan11449-3-6-2-4-9-4"
         x="60.509426"
         y="168.25211"
         style="font-size:0.88194454px;fill:#1a1a1a;stroke-width:0.26458332">add_buffer(vb : const VertexBuffer&amp;, </tspan><tspan
         sodipodi:role="line"
         x="60.509426"
         y="169.35454"
         style="font-size:0.88194454px;fill:#1a1a1a;stroke-width:0.26458332"
         id="tspan12097">                  layout : const VertexBufferLayout&amp;) : <tspan
   style="font-style:normal;font-variant:normal;font-weight:bold;font-stretch:normal;font-family:sans-serif;-inkscape-font-specification:'sans-serif Bold';stroke-width:0.26458332"
   id="tspan11535-3-62-3">void</tspan></tspan></text>
    <path
       style="fill:#c8b7b7;fill-opacity:1;stroke:#3d3230;stroke-width:0.01785714;stroke-linejoin:miter;stroke-miterlimit:4;stroke-dasharray:none;stroke-dashoffset:0;stroke-opacity:1;paint-order:normal"
       d="m 59.987779,157.58477 c 1.65e-4,-0.96564 0.0078,-1.06379 0.09406,-1.20523 0.05164,-0.0847 0.163177,-0.19623 0.24787,-0.24787 0.152738,-0.0931 0.267668,-0.0939 14.21071,-0.0941 13.601337,-1.7e-4 14.062021,0.003 14.220176,0.0875 0.0964,0.0517 0.207545,0.17104 0.270933,0.29091 0.102108,0.19309 0.107485,0.2537 0.107485,1.21164 V 158.636 H 74.56331 59.987605 Z m 19.072678,0.5342 c 0.279254,-0.12678 0.345672,-0.28163 0.345672,-0.80587 0,-0.52425 -0.06642,-0.67909 -0.345672,-0.80587 -0.190167,-0.0863 -0.388483,-0.0898 -5.22637,-0.0908 -4.915258,-0.001 -5.033061,0.001 -5.221828,0.0925 -0.290269,0.14051 -0.356425,0.28979 -0.356425,0.8042 0,0.51267 0.0651,0.66089 0.352814,0.80331 0.186841,0.0925 0.287848,0.0943 5.222335,0.0933 4.840978,-0.001 5.039304,-0.004 5.229474,-0.0908 z"
       id="path12100"
       inkscape:connector-curvature="0" />
    <rect
       style="fill:#c8b7b7;fill-opacity:1;stroke:none;stroke-width:0;stroke-linejoin:miter;stroke-miterlimit:4;stroke-dasharray:none;stroke-dashoffset:0;stroke-opacity:1;paint-order:normal"
       id="rect12104"
       width="12.311103"
       height="2.0045214"
       x="67.37149"
       y="156.24878"
       ry="0.62113053" />
    <text
       xml:space="preserve"
       style="font-style:normal;font-weight:normal;font-size:1.41111112px;line-height:1.25;font-family:sans-serif;letter-spacing:0px;word-spacing:0px;fill:#1a1a1a;fill-opacity:1;stroke:none;stroke-width:0.26458332"
       x="69.822739"
       y="157.74852"
       id="text11762-9"><tspan
         sodipodi:role="line"
         id="tspan11760-7"
         x="69.822739"
         y="157.74852"
         style="font-size:1.41111112px;fill:#1a1a1a;stroke-width:0.26458332">VertexArray</tspan></text>
    <rect
       style="fill:#efecec;fill-opacity:1;stroke:#3d3230;stroke-width:0.07841352;stroke-linejoin:miter;stroke-miterlimit:4;stroke-dasharray:none;stroke-dashoffset:0;stroke-opacity:1;paint-order:normal"
       id="rect10854-0-33"
       width="29.27599"
       height="15.176504"
       x="60.235313"
       y="171.14354"
       ry="0.84312993"
       transform="matrix(0.99999999,1.1921871e-4,-4.6604503e-4,0.99999989,0,0)" />
    <path
       style="fill:none;stroke:#000000;stroke-width:0.065;stroke-linecap:butt;stroke-linejoin:miter;stroke-miterlimit:4;stroke-dasharray:none;stroke-opacity:1"
       d="M 60.119811,173.88203 H 89.436588"
       id="path11401-6-8"
       inkscape:connector-curvature="0" />
    <path
       style="fill:none;stroke:#000000;stroke-width:0.065;stroke-linecap:butt;stroke-linejoin:miter;stroke-miterlimit:4;stroke-dasharray:none;stroke-opacity:1"
       d="M 60.151012,175.93302 H 89.46779"
       id="path11401-7-1-6"
       inkscape:connector-curvature="0" />
    <path
       style="fill:none;stroke:#000000;stroke-width:0.1;stroke-linecap:butt;stroke-linejoin:miter;stroke-miterlimit:4;stroke-dasharray:none;stroke-opacity:1"
       d="M 60.117603,178.07118 H 89.434382"
       id="path11401-7-8-5-0"
       inkscape:connector-curvature="0" />
    <path
       style="fill:none;stroke:#000000;stroke-width:0.065;stroke-linecap:butt;stroke-linejoin:miter;stroke-miterlimit:4;stroke-dasharray:none;stroke-opacity:1"
       d="M 60.107819,180.17593 H 89.424597"
       id="path11401-7-4-5-48"
       inkscape:connector-curvature="0" />
    <text
       xml:space="preserve"
       style="font-style:normal;font-weight:normal;font-size:1.41111112px;line-height:1.25;font-family:sans-serif;letter-spacing:0px;word-spacing:0px;fill:#1a1a1a;fill-opacity:1;stroke:none;stroke-width:0.26458332"
       x="69.831505"
       y="173.02644"
       id="text11451-4-88"
       inkscape:transform-center-x="1.2027129"
       inkscape:transform-center-y="-0.26726953"><tspan
         sodipodi:role="line"
         id="tspan11449-7-9"
         x="69.831505"
         y="173.02644"
         style="font-size:1.41111112px;fill:#1a1a1a;stroke-width:0.26458332">VertexBuffer</tspan></text>
    <text
       xml:space="preserve"
       style="font-style:normal;font-weight:normal;font-size:0.88194454px;line-height:1.25;font-family:sans-serif;letter-spacing:0px;word-spacing:0px;fill:#1a1a1a;fill-opacity:1;stroke:none;stroke-width:0.26458332"
       x="60.938812"
       y="175.25638"
       id="text11451-0-65-7"
       inkscape:transform-center-x="1.2027129"
       inkscape:transform-center-y="-0.26726953"><tspan
         sodipodi:role="line"
         id="tspan11449-3-69-7"
         x="60.938812"
         y="175.25638"
         style="font-size:0.88194454px;fill:#1a1a1a;stroke-width:0.26458332">elements : <tspan
   style="font-style:normal;font-variant:normal;font-weight:bold;font-stretch:normal;font-family:sans-serif;-inkscape-font-specification:'sans-serif Bold';stroke-width:0.26458332"
   id="tspan11527-3-6">std::vecor&lt;VertexBufferElement&gt;</tspan></tspan></text>
    <text
       xml:space="preserve"
       style="font-style:normal;font-weight:normal;font-size:0.88194454px;line-height:1.25;font-family:sans-serif;letter-spacing:0px;word-spacing:0px;fill:#1a1a1a;fill-opacity:1;stroke:none;stroke-width:0.26458332"
       x="60.77232"
       y="179.46194"
       id="text11451-0-6-7-43"
       inkscape:transform-center-x="1.2027129"
       inkscape:transform-center-y="-0.26726953"><tspan
         sodipodi:role="line"
         id="tspan11449-3-1-4-0"
         x="60.77232"
         y="179.46194"
         style="font-size:0.88194454px;fill:#1a1a1a;stroke-width:0.26458332">VertexBufferLayout()</tspan></text>
    <text
       xml:space="preserve"
       style="font-style:normal;font-weight:normal;font-size:0.88194454px;line-height:1.25;font-family:sans-serif;letter-spacing:0px;word-spacing:0px;fill:#1a1a1a;fill-opacity:1;stroke:none;stroke-width:0.26458332"
       x="60.676144"
       y="181.38753"
       id="text11451-0-0-5-9"
       inkscape:transform-center-x="1.2027129"
       inkscape:transform-center-y="-0.26726953"><tspan
         sodipodi:role="line"
         id="tspan11449-3-6-4-2"
         x="60.676144"
         y="181.38753"
         style="font-size:0.88194454px;fill:#1a1a1a;stroke-width:0.26458332">template&lt;typename T&gt; push(count : <tspan
   style="-inkscape-font-specification:'sans-serif Bold';font-family:sans-serif;font-weight:bold;font-style:normal;font-stretch:normal;font-variant:normal"
   id="tspan12253">unsigned</tspan>) : <tspan
   style="font-style:normal;font-variant:normal;font-weight:bold;font-stretch:normal;font-family:sans-serif;-inkscape-font-specification:'sans-serif Bold';stroke-width:0.26458332"
   id="tspan11533-7-5">void</tspan></tspan></text>
    <text
       xml:space="preserve"
       style="font-style:normal;font-weight:normal;font-size:0.88194454px;line-height:1.25;font-family:sans-serif;letter-spacing:0px;word-spacing:0px;fill:#1a1a1a;fill-opacity:1;stroke:none;stroke-width:0.26458332"
       x="60.630341"
       y="183.42563"
       id="text11451-0-0-3-4-4"
       inkscape:transform-center-x="1.2027129"
       inkscape:transform-center-y="-0.26726953"><tspan
         sodipodi:role="line"
         id="tspan11449-3-6-2-4-0"
         x="60.630341"
         y="183.42563"
         style="font-size:0.88194454px;fill:#1a1a1a;stroke-width:0.26458332">get_elements() const : <tspan
   style="font-style:normal;font-variant:normal;font-weight:bold;font-stretch:normal;font-family:sans-serif;-inkscape-font-specification:'sans-serif Bold';stroke-width:0.26458332"
   id="tspan11535-3-5">std::vector&lt;VertexBufferElement&gt;</tspan></tspan></text>
    <path
       style="fill:#c8b7b7;fill-opacity:1;stroke:#3d3230;stroke-width:0.00820749;stroke-linejoin:miter;stroke-miterlimit:4;stroke-dasharray:none;stroke-dashoffset:0;stroke-opacity:1;paint-order:normal"
       d="m 71.002208,172.55749 c 0.05931,-0.007 0.164547,-0.008 0.233862,-2.6e-4 0.06932,0.007 0.0208,0.0133 -0.107833,0.0134 -0.128625,1.5e-4 -0.185336,-0.006 -0.126029,-0.0131 z"
       id="path11553-7-9"
       inkscape:connector-curvature="0" />
    <path
       style="fill:#c8b7b7;fill-opacity:1;stroke:#3d3230;stroke-width:0.00580357;stroke-linejoin:miter;stroke-miterlimit:4;stroke-dasharray:none;stroke-dashoffset:0;stroke-opacity:1;paint-order:normal"
       d="m 70.913043,172.5262 c 0,-0.0106 0.02752,-0.0519 0.06116,-0.0919 0.08047,-0.0956 0.218508,-0.10227 0.306078,-0.0147 0.106762,0.10676 0.08171,0.12725 -0.154626,0.12651 -0.116938,-2.7e-4 -0.212611,-0.009 -0.212611,-0.0199 z"
       id="path11555-8-4"
       inkscape:connector-curvature="0" />
    <path
       style="fill:#c8b7b7;fill-opacity:1;stroke:#3d3230;stroke-width:0.00205187;stroke-linejoin:miter;stroke-miterlimit:4;stroke-dasharray:none;stroke-dashoffset:0;stroke-opacity:1;paint-order:normal"
       d="m 72.912645,172.53914 c 0.01471,-0.0785 0.06985,-0.14975 0.13525,-0.17473 0.05214,-0.0199 0.146068,-0.0195 0.185375,7.9e-4 0.06547,0.0338 0.105801,0.0917 0.114379,0.1641 l 0.0049,0.0412 h -0.222874 -0.222874 z"
       id="path11557-6-6"
       inkscape:connector-curvature="0" />
    <path
       style="fill:#c8b7b7;fill-opacity:1;stroke:#3d3230;stroke-width:0.00205187;stroke-linejoin:miter;stroke-miterlimit:4;stroke-dasharray:none;stroke-dashoffset:0;stroke-opacity:1;paint-order:normal"
       d="m 74.65314,172.27007 v -0.15198 l 0.148252,0.003 c 0.131505,0.002 0.151548,0.005 0.177453,0.0199 0.04698,0.0276 0.06685,0.0645 0.06685,0.12411 0,0.0682 -0.01918,0.10311 -0.07143,0.13001 -0.03714,0.0191 -0.05098,0.021 -0.180673,0.024 l -0.140449,0.003 z"
       id="path11559-8-9"
       inkscape:connector-curvature="0" />
    <path
       style="fill:#c8b7b7;fill-opacity:1;stroke:#3d3230;stroke-width:0.00205187;stroke-linejoin:miter;stroke-miterlimit:4;stroke-dasharray:none;stroke-dashoffset:0;stroke-opacity:1;paint-order:normal"
       d="m 74.65314,172.71986 v -0.18467 l 0.148252,0.004 c 0.157501,0.004 0.192116,0.0113 0.234539,0.0509 0.06624,0.0618 0.06738,0.19881 0.0021,0.26399 -0.04384,0.0438 -0.07739,0.0509 -0.241885,0.0509 h -0.143105 z"
       id="path11561-8-2"
       inkscape:connector-curvature="0" />
    <path
       style="fill:#c8b7b7;fill-opacity:1;stroke:#3d3230;stroke-width:0.00290179;stroke-linejoin:miter;stroke-miterlimit:4;stroke-dasharray:none;stroke-dashoffset:0;stroke-opacity:1;paint-order:normal"
       d="m 77.421801,172.56463 c 0,-0.006 0.0084,-0.0362 0.01871,-0.0664 0.05984,-0.17562 0.322072,-0.20173 0.398948,-0.0397 0.01066,0.0225 0.01939,0.0547 0.01939,0.0715 v 0.0307 l -0.121071,7e-5 c -0.06659,4e-5 -0.16492,0.003 -0.218517,0.008 -0.0603,0.005 -0.09745,0.003 -0.09745,-0.004 z"
       id="path11563-4-2"
       inkscape:connector-curvature="0" />
    <rect
       style="fill:#c8b7b7;fill-opacity:1;stroke:#3d3230;stroke-width:0;stroke-linejoin:miter;stroke-miterlimit:4;stroke-dasharray:none;stroke-dashoffset:0;stroke-opacity:1;paint-order:normal"
       id="rect11662-4"
       width="12.461442"
       height="1.9209995"
       x="68.128807"
       y="171.57709"
       ry="0.686827" />
    <path
       style="fill:none;stroke:#000000;stroke-width:0.065;stroke-linecap:butt;stroke-linejoin:miter;stroke-miterlimit:4;stroke-dasharray:none;stroke-opacity:1"
       d="M 60.098215,182.19713 H 89.414993"
       id="path11401-7-4-5-6-4"
       inkscape:connector-curvature="0" />
    <path
       style="fill:none;stroke:#000000;stroke-width:0.065;stroke-linecap:butt;stroke-linejoin:miter;stroke-miterlimit:4;stroke-dasharray:none;stroke-opacity:1"
       d="M 60.169084,184.20513 H 89.485862"
       id="path11401-7-4-5-6-1-8"
       inkscape:connector-curvature="0" />
    <text
       xml:space="preserve"
       style="font-style:normal;font-weight:normal;font-size:0.88194454px;line-height:1.25;font-family:sans-serif;letter-spacing:0px;word-spacing:0px;fill:#1a1a1a;fill-opacity:1;stroke:none;stroke-width:0.26458332"
       x="60.927315"
       y="177.31621"
       id="text11451-0-65-85-1"
       inkscape:transform-center-x="1.2027129"
       inkscape:transform-center-y="-0.26726953"><tspan
         sodipodi:role="line"
         id="tspan11449-3-69-0-2"
         x="60.927315"
         y="177.31621"
         style="font-size:0.88194454px;fill:#1a1a1a;stroke-width:0.26458332">stride : <tspan
   style="font-style:normal;font-variant:normal;font-weight:bold;font-stretch:normal;font-family:sans-serif;-inkscape-font-specification:'sans-serif Bold';stroke-width:0.26458332"
   id="tspan11527-3-9-8">unsigned</tspan></tspan></text>
    <text
       xml:space="preserve"
       style="font-style:normal;font-weight:normal;font-size:0.88194454px;line-height:1.25;font-family:sans-serif;letter-spacing:0px;word-spacing:0px;fill:#1a1a1a;fill-opacity:1;stroke:none;stroke-width:0.26458332"
       x="60.644672"
       y="185.53838"
       id="text11451-0-0-3-4-63-9"
       inkscape:transform-center-x="1.2027129"
       inkscape:transform-center-y="-0.26726953"><tspan
         sodipodi:role="line"
         id="tspan11449-3-6-2-4-8-3"
         x="60.644672"
         y="185.53838"
         style="font-size:0.88194454px;fill:#1a1a1a;stroke-width:0.26458332">get_stride() const : <tspan
   style="font-style:normal;font-variant:normal;font-weight:bold;font-stretch:normal;font-family:sans-serif;-inkscape-font-specification:'sans-serif Bold';stroke-width:0.26458332"
   id="tspan11941-6">unsigned</tspan></tspan></text>
    <path
       style="fill:#c8b7b7;fill-opacity:1;stroke:#3d3230;stroke-width:0;stroke-linejoin:miter;stroke-miterlimit:4;stroke-dasharray:none;stroke-dashoffset:0;stroke-opacity:1;paint-order:normal"
       d="m 60.198622,172.83424 c 0.01019,-0.94068 0.01574,-1.02102 0.08053,-1.16095 0.08436,-0.18224 0.257238,-0.34029 0.453078,-0.41422 0.134297,-0.0507 1.220562,-0.0542 14.110332,-0.0459 l 13.964832,0.009 0.133636,0.0721 c 0.171077,0.0923 0.298177,0.22692 0.373539,0.39561 0.05212,0.11666 0.06116,0.26201 0.07117,1.14425 l 0.01146,1.01061 H 74.792438 60.187679 Z m 19.088677,0.48009 c 0.170312,-0.0774 0.303397,-0.23405 0.351954,-0.41438 0.02127,-0.079 0.03243,-0.29437 0.02558,-0.49422 -0.01093,-0.31929 -0.02114,-0.3678 -0.10369,-0.49254 -0.05036,-0.0761 -0.15544,-0.17248 -0.233513,-0.21419 l -0.141944,-0.0758 h -5.111531 -5.11153 l -0.139173,0.0744 c -0.15176,0.0812 -0.246947,0.19697 -0.306734,0.37324 -0.0478,0.14094 -0.05011,0.67855 -0.0036,0.8459 0.04615,0.16619 0.183171,0.32277 0.347937,0.39761 0.129096,0.0586 0.357786,0.0613 5.213138,0.0613 4.855353,0 5.084043,-0.003 5.213139,-0.0613 z"
       id="path12068-8"
       inkscape:connector-curvature="0" />
    <text
       xml:space="preserve"
       style="font-style:normal;font-weight:normal;font-size:1.41111112px;line-height:1.25;font-family:sans-serif;letter-spacing:0px;word-spacing:0px;fill:#1a1a1a;fill-opacity:1;stroke:none;stroke-width:0.26458332"
       x="68.097206"
       y="173.02007"
       id="text11762-7"><tspan
         sodipodi:role="line"
         id="tspan11760-75"
         x="68.097206"
         y="173.02007"
         style="font-size:1.41111112px;fill:#1a1a1a;stroke-width:0.26458332">VertexBufferLayout</tspan></text>
  </g>
</svg>
