<?xml version="1.0" encoding="UTF-8" standalone="no"?>
<!-- Created with Inkscape (http://www.inkscape.org/) -->

<svg
   xmlns:dc="http://purl.org/dc/elements/1.1/"
   xmlns:cc="http://creativecommons.org/ns#"
   xmlns:rdf="http://www.w3.org/1999/02/22-rdf-syntax-ns#"
   xmlns:svg="http://www.w3.org/2000/svg"
   xmlns="http://www.w3.org/2000/svg"
   xmlns:sodipodi="http://sodipodi.sourceforge.net/DTD/sodipodi-0.dtd"
   xmlns:inkscape="http://www.inkscape.org/namespaces/inkscape"
   width="210mm"
   height="297mm"
   viewBox="0 0 210 297"
   version="1.1"
   id="svg2321"
   inkscape:version="0.92.4 5da689c313, 2019-01-14"
   sodipodi:docname="system-diagram.svg">
  <defs
     id="defs2315">
    <marker
       inkscape:stockid="Arrow2Sstart"
       orient="auto"
       refY="0.0"
       refX="0.0"
       id="Arrow2Sstart"
       style="overflow:visible"
       inkscape:isstock="true">
      <path
         id="path2999"
         style="fill-rule:evenodd;stroke-width:0.625;stroke-linejoin:round;stroke:#000000;stroke-opacity:1;fill:#000000;fill-opacity:1"
         d="M 8.7185878,4.0337352 L -2.2072895,0.016013256 L 8.7185884,-4.0017078 C 6.9730900,-1.6296469 6.9831476,1.6157441 8.7185878,4.0337352 z "
         transform="scale(0.3) translate(-2.3,0)" />
    </marker>
    <marker
       inkscape:stockid="Arrow1Sstart"
       orient="auto"
       refY="0.0"
       refX="0.0"
       id="marker3365"
       style="overflow:visible"
       inkscape:isstock="true">
      <path
         id="path3363"
         d="M 0.0,0.0 L 5.0,-5.0 L -12.5,0.0 L 5.0,5.0 L 0.0,0.0 z "
         style="fill-rule:evenodd;stroke:#000000;stroke-width:1pt;stroke-opacity:1;fill:#000000;fill-opacity:1"
         transform="scale(0.2) translate(6,0)" />
    </marker>
    <marker
       inkscape:stockid="Arrow2Mstart"
       orient="auto"
       refY="0.0"
       refX="0.0"
       id="marker3325"
       style="overflow:visible"
       inkscape:isstock="true">
      <path
         id="path3323"
         style="fill-rule:evenodd;stroke-width:0.625;stroke-linejoin:round;stroke:#000000;stroke-opacity:1;fill:#000000;fill-opacity:1"
         d="M 8.7185878,4.0337352 L -2.2072895,0.016013256 L 8.7185884,-4.0017078 C 6.9730900,-1.6296469 6.9831476,1.6157441 8.7185878,4.0337352 z "
         transform="scale(0.6) translate(0,0)" />
    </marker>
    <marker
       inkscape:stockid="Arrow2Mstart"
       orient="auto"
       refY="0.0"
       refX="0.0"
       id="Arrow2Mstart"
       style="overflow:visible"
       inkscape:isstock="true">
      <path
         id="path2993"
         style="fill-rule:evenodd;stroke-width:0.625;stroke-linejoin:round;stroke:#000000;stroke-opacity:1;fill:#000000;fill-opacity:1"
         d="M 8.7185878,4.0337352 L -2.2072895,0.016013256 L 8.7185884,-4.0017078 C 6.9730900,-1.6296469 6.9831476,1.6157441 8.7185878,4.0337352 z "
         transform="scale(0.6) translate(0,0)" />
    </marker>
    <marker
       inkscape:stockid="Arrow1Mstart"
       orient="auto"
       refY="0.0"
       refX="0.0"
       id="Arrow1Mstart"
       style="overflow:visible"
       inkscape:isstock="true">
      <path
         id="path2975"
         d="M 0.0,0.0 L 5.0,-5.0 L -12.5,0.0 L 5.0,5.0 L 0.0,0.0 z "
         style="fill-rule:evenodd;stroke:#000000;stroke-width:1pt;stroke-opacity:1;fill:#000000;fill-opacity:1"
         transform="scale(0.4) translate(10,0)" />
    </marker>
    <marker
       inkscape:stockid="Arrow1Sstart"
       orient="auto"
       refY="0.0"
       refX="0.0"
       id="Arrow1Sstart"
       style="overflow:visible"
       inkscape:isstock="true">
      <path
         id="path2981"
         d="M 0.0,0.0 L 5.0,-5.0 L -12.5,0.0 L 5.0,5.0 L 0.0,0.0 z "
         style="fill-rule:evenodd;stroke:#000000;stroke-width:1pt;stroke-opacity:1;fill:#000000;fill-opacity:1"
         transform="scale(0.2) translate(6,0)" />
    </marker>
    <marker
       inkscape:stockid="Arrow2Sstart"
       orient="auto"
       refY="0"
       refX="0"
       id="Arrow2Sstart-3"
       style="overflow:visible"
       inkscape:isstock="true">
      <path
         inkscape:connector-curvature="0"
         id="path2999-0"
         style="fill:#000000;fill-opacity:1;fill-rule:evenodd;stroke:#000000;stroke-width:0.625;stroke-linejoin:round;stroke-opacity:1"
         d="M 8.7185878,4.0337352 -2.2072895,0.01601326 8.7185884,-4.0017078 c -1.7454984,2.3720609 -1.7354408,5.6174519 -6e-7,8.035443 z"
         transform="matrix(0.3,0,0,0.3,-0.69,0)" />
    </marker>
    <marker
       inkscape:stockid="Arrow2Sstart"
       orient="auto"
       refY="0"
       refX="0"
       id="Arrow2Sstart-3-8"
       style="overflow:visible"
       inkscape:isstock="true">
      <path
         inkscape:connector-curvature="0"
         id="path2999-0-6"
         style="fill:#000000;fill-opacity:1;fill-rule:evenodd;stroke:#000000;stroke-width:0.625;stroke-linejoin:round;stroke-opacity:1"
         d="M 8.7185878,4.0337352 -2.2072895,0.01601326 8.7185884,-4.0017078 c -1.7454984,2.3720609 -1.7354408,5.6174519 -6e-7,8.035443 z"
         transform="matrix(0.3,0,0,0.3,-0.69,0)" />
    </marker>
    <marker
       inkscape:stockid="Arrow2Sstart"
       orient="auto"
       refY="0"
       refX="0"
       id="Arrow2Sstart-3-8-8"
       style="overflow:visible"
       inkscape:isstock="true">
      <path
         inkscape:connector-curvature="0"
         id="path2999-0-6-4"
         style="fill:#000000;fill-opacity:1;fill-rule:evenodd;stroke:#000000;stroke-width:0.625;stroke-linejoin:round;stroke-opacity:1"
         d="M 8.7185878,4.0337352 -2.2072895,0.01601326 8.7185884,-4.0017078 c -1.7454984,2.3720609 -1.7354408,5.6174519 -6e-7,8.035443 z"
         transform="matrix(0.3,0,0,0.3,-0.69,0)" />
    </marker>
    <marker
       inkscape:stockid="Arrow2Sstart"
       orient="auto"
       refY="0"
       refX="0"
       id="Arrow2Sstart-3-8-1"
       style="overflow:visible"
       inkscape:isstock="true">
      <path
         inkscape:connector-curvature="0"
         id="path2999-0-6-49"
         style="fill:#000000;fill-opacity:1;fill-rule:evenodd;stroke:#000000;stroke-width:0.625;stroke-linejoin:round;stroke-opacity:1"
         d="M 8.7185878,4.0337352 -2.2072895,0.01601326 8.7185884,-4.0017078 c -1.7454984,2.3720609 -1.7354408,5.6174519 -6e-7,8.035443 z"
         transform="matrix(0.3,0,0,0.3,-0.69,0)" />
    </marker>
    <marker
       inkscape:stockid="Arrow2Sstart"
       orient="auto"
       refY="0"
       refX="0"
       id="Arrow2Sstart-3-8-1-0"
       style="overflow:visible"
       inkscape:isstock="true">
      <path
         inkscape:connector-curvature="0"
         id="path2999-0-6-49-6"
         style="fill:#000000;fill-opacity:1;fill-rule:evenodd;stroke:#000000;stroke-width:0.625;stroke-linejoin:round;stroke-opacity:1"
         d="M 8.7185878,4.0337352 -2.2072895,0.01601326 8.7185884,-4.0017078 c -1.7454984,2.3720609 -1.7354408,5.6174519 -6e-7,8.035443 z"
         transform="matrix(0.3,0,0,0.3,-0.69,0)" />
    </marker>
    <marker
       inkscape:stockid="Arrow2Sstart"
       orient="auto"
       refY="0"
       refX="0"
       id="Arrow2Sstart-3-8-1-0-9"
       style="overflow:visible"
       inkscape:isstock="true">
      <path
         inkscape:connector-curvature="0"
         id="path2999-0-6-49-6-2"
         style="fill:#000000;fill-opacity:1;fill-rule:evenodd;stroke:#000000;stroke-width:0.625;stroke-linejoin:round;stroke-opacity:1"
         d="M 8.7185878,4.0337352 -2.2072895,0.01601326 8.7185884,-4.0017078 c -1.7454984,2.3720609 -1.7354408,5.6174519 -6e-7,8.035443 z"
         transform="matrix(0.3,0,0,0.3,-0.69,0)" />
    </marker>
    <marker
       inkscape:stockid="Arrow2Sstart"
       orient="auto"
       refY="0"
       refX="0"
       id="Arrow2Sstart-3-8-1-0-9-1"
       style="overflow:visible"
       inkscape:isstock="true">
      <path
         inkscape:connector-curvature="0"
         id="path2999-0-6-49-6-2-5"
         style="fill:#000000;fill-opacity:1;fill-rule:evenodd;stroke:#000000;stroke-width:0.625;stroke-linejoin:round;stroke-opacity:1"
         d="M 8.7185878,4.0337352 -2.2072895,0.01601326 8.7185884,-4.0017078 c -1.7454984,2.3720609 -1.7354408,5.6174519 -6e-7,8.035443 z"
         transform="matrix(0.3,0,0,0.3,-0.69,0)" />
    </marker>
    <marker
       inkscape:stockid="Arrow2Sstart"
       orient="auto"
       refY="0"
       refX="0"
       id="Arrow2Sstart-3-8-1-0-9-1-7"
       style="overflow:visible"
       inkscape:isstock="true">
      <path
         inkscape:connector-curvature="0"
         id="path2999-0-6-49-6-2-5-7"
         style="fill:#000000;fill-opacity:1;fill-rule:evenodd;stroke:#000000;stroke-width:0.625;stroke-linejoin:round;stroke-opacity:1"
         d="M 8.7185878,4.0337352 -2.2072895,0.01601326 8.7185884,-4.0017078 c -1.7454984,2.3720609 -1.7354408,5.6174519 -6e-7,8.035443 z"
         transform="matrix(0.3,0,0,0.3,-0.69,0)" />
    </marker>
    <marker
       inkscape:stockid="Arrow2Sstart"
       orient="auto"
       refY="0"
       refX="0"
       id="Arrow2Sstart-3-8-1-0-9-1-7-7"
       style="overflow:visible"
       inkscape:isstock="true">
      <path
         inkscape:connector-curvature="0"
         id="path2999-0-6-49-6-2-5-7-3"
         style="fill:#000000;fill-opacity:1;fill-rule:evenodd;stroke:#000000;stroke-width:0.625;stroke-linejoin:round;stroke-opacity:1"
         d="M 8.7185878,4.0337352 -2.2072895,0.01601326 8.7185884,-4.0017078 c -1.7454984,2.3720609 -1.7354408,5.6174519 -6e-7,8.035443 z"
         transform="matrix(0.3,0,0,0.3,-0.69,0)" />
    </marker>
    <marker
       inkscape:stockid="Arrow2Sstart"
       orient="auto"
       refY="0"
       refX="0"
       id="Arrow2Sstart-3-8-1-0-9-1-7-7-9"
       style="overflow:visible"
       inkscape:isstock="true">
      <path
         inkscape:connector-curvature="0"
         id="path2999-0-6-49-6-2-5-7-3-4"
         style="fill:#000000;fill-opacity:1;fill-rule:evenodd;stroke:#000000;stroke-width:0.625;stroke-linejoin:round;stroke-opacity:1"
         d="M 8.7185878,4.0337352 -2.2072895,0.01601326 8.7185884,-4.0017078 c -1.7454984,2.3720609 -1.7354408,5.6174519 -6e-7,8.035443 z"
         transform="matrix(0.3,0,0,0.3,-0.69,0)" />
    </marker>
    <marker
       inkscape:stockid="Arrow2Sstart"
       orient="auto"
       refY="0"
       refX="0"
       id="Arrow2Sstart-3-4"
       style="overflow:visible"
       inkscape:isstock="true">
      <path
         inkscape:connector-curvature="0"
         id="path2999-0-8"
         style="fill:#000000;fill-opacity:1;fill-rule:evenodd;stroke:#000000;stroke-width:0.625;stroke-linejoin:round;stroke-opacity:1"
         d="M 8.7185878,4.0337352 -2.2072895,0.01601326 8.7185884,-4.0017078 c -1.7454984,2.3720609 -1.7354408,5.6174519 -6e-7,8.035443 z"
         transform="matrix(0.3,0,0,0.3,-0.69,0)" />
    </marker>
  </defs>
  <sodipodi:namedview
     id="base"
     pagecolor="#ffffff"
     bordercolor="#666666"
     borderopacity="1.0"
     inkscape:pageopacity="0.0"
     inkscape:pageshadow="2"
     inkscape:zoom="1.5322671"
     inkscape:cx="343.93716"
     inkscape:cy="634.76179"
     inkscape:document-units="mm"
     inkscape:current-layer="layer1"
     showgrid="false"
     inkscape:window-width="1896"
     inkscape:window-height="1030"
     inkscape:window-x="10"
     inkscape:window-y="36"
     inkscape:window-maximized="1" />
  <metadata
     id="metadata2318">
    <rdf:RDF>
      <cc:Work
         rdf:about="">
        <dc:format>image/svg+xml</dc:format>
        <dc:type
           rdf:resource="http://purl.org/dc/dcmitype/StillImage" />
        <dc:title></dc:title>
      </cc:Work>
    </rdf:RDF>
  </metadata>
  <g
     inkscape:label="Layer 1"
     inkscape:groupmode="layer"
     id="layer1">
    <path
       style="fill:none;stroke:#000000;stroke-width:0.296;stroke-linecap:butt;stroke-linejoin:miter;stroke-opacity:1;marker-start:url(#Arrow2Sstart-3);stroke-miterlimit:4;stroke-dasharray:none"
       d="M 144.95395,125.81193 H 133.30592"
       id="path3263-7"
       inkscape:connector-curvature="0" />
    <path
       style="fill:none;stroke:#000000;stroke-width:0.33172485px;stroke-linecap:butt;stroke-linejoin:miter;stroke-opacity:1;marker-start:url(#Arrow2Sstart-3-8-8)"
       d="m 106.48996,137.02119 11.00243,-8.3247"
       id="path3263-7-8-3"
       inkscape:connector-curvature="0" />
    <path
       style="fill:none;stroke:#000000;stroke-width:0.296;stroke-linecap:butt;stroke-linejoin:miter;stroke-opacity:1;marker-start:url(#Arrow2Sstart-3-4);stroke-miterlimit:4;stroke-dasharray:none"
       d="m 146.53764,132.01747 -13.04056,-4.42492"
       id="path3263-7-1"
       inkscape:connector-curvature="0" />
    <path
       style="fill:none;stroke:#000000;stroke-width:0.28343928px;stroke-linecap:butt;stroke-linejoin:miter;stroke-opacity:1;marker-start:url(#Arrow2Sstart-3-8-1)"
       d="m 133.36057,138.27188 -10.0818,-9.74447"
       id="path3263-7-8-2"
       inkscape:connector-curvature="0" />
    <rect
       style="fill:#a59292;fill-opacity:1;stroke:#000000;stroke-width:0.10990363;stroke-linejoin:miter;stroke-miterlimit:4;stroke-dasharray:none;stroke-dashoffset:0;stroke-opacity:1;paint-order:normal"
       id="rect2866"
       width="23.747078"
       height="6.0426865"
       x="109.84221"
       y="123.04675"
       ry="0.98179823" />
    <text
       xml:space="preserve"
       style="font-style:normal;font-weight:normal;font-size:3.10172462px;line-height:1.25;font-family:sans-serif;letter-spacing:0px;word-spacing:0px;fill:#241c1c;fill-opacity:1;stroke:none;stroke-width:0.29078665"
       x="123.29276"
       y="119.88992"
       id="text2870"
       transform="scale(0.94380848,1.059537)"><tspan
         sodipodi:role="line"
         id="tspan2868"
         x="123.29276"
         y="119.88992"
         style="font-size:3.10172462px;fill:#241c1c;stroke-width:0.29078665">System</tspan></text>
    <rect
       style="fill:#c8beb7;fill-opacity:1;stroke:#000000;stroke-width:0.1;stroke-linejoin:miter;stroke-miterlimit:4;stroke-dasharray:none;stroke-dashoffset:0;stroke-opacity:1;paint-order:normal"
       id="rect2866-5"
       width="22.89361"
       height="5.189218"
       x="93.253304"
       y="137.38574"
       ry="0.84312922" />
    <text
       xml:space="preserve"
       style="font-style:normal;font-weight:normal;font-size:2.82222223px;line-height:1.25;font-family:sans-serif;letter-spacing:0px;word-spacing:0px;fill:#241c1c;fill-opacity:1;stroke:none;stroke-width:0.26458332"
       x="101.12872"
       y="140.92662"
       id="text2870-0"><tspan
         sodipodi:role="line"
         id="tspan2868-3"
         x="101.12872"
         y="140.92662"
         style="font-size:2.82222223px;fill:#241c1c;stroke-width:0.26458332">Cart</tspan></text>
    <path
       style="fill:none;stroke:#000000;stroke-width:0.19912221px;stroke-linecap:butt;stroke-linejoin:miter;stroke-opacity:1;marker-start:url(#Arrow2Sstart-3-8-1-0)"
       d="m 146.8798,149.39342 -7.17942,-6.75346"
       id="path3263-7-8-2-8"
       inkscape:connector-curvature="0" />
    <path
       style="fill:none;stroke:#000000;stroke-width:0.19912221px;stroke-linecap:butt;stroke-linejoin:miter;stroke-opacity:1;marker-start:url(#Arrow2Sstart-3-8-1-0-9)"
       d="m 125.10577,149.34829 6.75346,-7.17942"
       id="path3263-7-8-2-8-6"
       inkscape:connector-curvature="0" />
    <rect
       style="fill:#c8beb7;fill-opacity:1;stroke:#000000;stroke-width:0.1;stroke-linejoin:miter;stroke-miterlimit:4;stroke-dasharray:none;stroke-dashoffset:0;stroke-opacity:1;paint-order:normal"
       id="rect2866-6"
       width="22.89361"
       height="5.189218"
       x="124.44796"
       y="138.48039"
       ry="0.84312922" />
    <text
       xml:space="preserve"
       style="font-style:normal;font-weight:normal;font-size:2.82222223px;line-height:1.25;font-family:sans-serif;letter-spacing:0px;word-spacing:0px;fill:#241c1c;fill-opacity:1;stroke:none;stroke-width:0.26458332"
       x="128.83667"
       y="142.07182"
       id="text2870-1"><tspan
         sodipodi:role="line"
         id="tspan2868-0"
         x="128.83667"
         y="142.07182"
         style="font-size:2.82222223px;fill:#241c1c;stroke-width:0.26458332">Pendulum</tspan></text>
    <rect
       style="fill:#e3dbdb;fill-opacity:1;stroke:#000000;stroke-width:0.1;stroke-linejoin:miter;stroke-miterlimit:4;stroke-dasharray:none;stroke-dashoffset:0;stroke-opacity:1;paint-order:normal"
       id="rect2866-63"
       width="22.89361"
       height="5.189218"
       x="112.55982"
       y="149.52945"
       ry="0.84312922" />
    <text
       xml:space="preserve"
       style="font-style:normal;font-weight:normal;font-size:2.82222223px;line-height:1.25;font-family:sans-serif;letter-spacing:0px;word-spacing:0px;fill:#241c1c;fill-opacity:1;stroke:none;stroke-width:0.26458332"
       x="121.28992"
       y="153.07031"
       id="text2870-2"><tspan
         sodipodi:role="line"
         id="tspan2868-06"
         x="121.28992"
         y="153.07031"
         style="font-size:2.82222223px;fill:#241c1c;stroke-width:0.26458332">Rod</tspan></text>
    <rect
       style="fill:#e3dbdb;fill-opacity:1;stroke:#000000;stroke-width:0.1;stroke-linejoin:miter;stroke-miterlimit:4;stroke-dasharray:none;stroke-dashoffset:0;stroke-opacity:1;paint-order:normal"
       id="rect2866-1"
       width="22.89361"
       height="5.189218"
       x="138.42717"
       y="149.5656"
       ry="0.84312922" />
    <text
       xml:space="preserve"
       style="font-style:normal;font-weight:normal;font-size:2.82222223px;line-height:1.25;font-family:sans-serif;letter-spacing:0px;word-spacing:0px;fill:#241c1c;fill-opacity:1;stroke:none;stroke-width:0.26458332"
       x="147.52356"
       y="153.10648"
       id="text2870-5"><tspan
         sodipodi:role="line"
         id="tspan2868-5"
         x="147.52356"
         y="153.10648"
         style="font-size:2.82222223px;fill:#241c1c;stroke-width:0.26458332">Ball</tspan></text>
    <rect
       style="fill:#c8beb7;fill-opacity:1;stroke:#000000;stroke-width:0.1;stroke-linejoin:miter;stroke-miterlimit:4;stroke-dasharray:none;stroke-dashoffset:0;stroke-opacity:1;paint-order:normal"
       id="rect2866-56"
       width="22.89361"
       height="5.189218"
       x="110.39177"
       y="108.13758"
       ry="0.84312922" />
    <text
       xml:space="preserve"
       style="font-style:normal;font-weight:normal;font-size:2.82222223px;line-height:1.25;font-family:sans-serif;letter-spacing:0px;word-spacing:0px;fill:#241c1c;fill-opacity:1;stroke:none;stroke-width:0.26458332"
       x="117.41248"
       y="111.55635"
       id="text2870-9"><tspan
         sodipodi:role="line"
         id="tspan2868-37"
         x="117.41248"
         y="111.55635"
         style="font-size:2.82222223px;fill:#241c1c;stroke-width:0.26458332">State</tspan></text>
    <rect
       style="fill:#c8beb7;fill-opacity:1;stroke:#000000;stroke-width:0.1;stroke-linejoin:miter;stroke-miterlimit:4;stroke-dasharray:none;stroke-dashoffset:0;stroke-opacity:1;paint-order:normal"
       id="rect2866-4"
       width="22.89361"
       height="5.189218"
       x="145.46599"
       y="123.01065"
       ry="0.84312922" />
    <text
       xml:space="preserve"
       style="font-style:normal;font-weight:normal;font-size:2.82222223px;line-height:1.25;font-family:sans-serif;letter-spacing:0px;word-spacing:0px;fill:#241c1c;fill-opacity:1;stroke:none;stroke-width:0.26458332"
       x="152.6088"
       y="126.55152"
       id="text2870-52"><tspan
         sodipodi:role="line"
         id="tspan2868-54"
         x="152.6088"
         y="126.55152"
         style="font-size:2.82222223px;fill:#241c1c;stroke-width:0.26458332">Solver</tspan></text>
    <rect
       style="fill:#c8beb7;fill-opacity:1;stroke:#000000;stroke-width:0.1;stroke-linejoin:miter;stroke-miterlimit:4;stroke-dasharray:none;stroke-dashoffset:0;stroke-opacity:1;paint-order:normal"
       id="rect2866-7"
       width="22.89361"
       height="5.189218"
       x="73.356514"
       y="123.54305"
       ry="0.84312922" />
    <text
       xml:space="preserve"
       style="font-style:normal;font-weight:normal;font-size:2.82222223px;line-height:1.25;font-family:sans-serif;letter-spacing:0px;word-spacing:0px;fill:#241c1c;fill-opacity:1;stroke:none;stroke-width:0.26458332"
       x="75.249062"
       y="126.96182"
       id="text2870-4"><tspan
         sodipodi:role="line"
         id="tspan2868-4"
         x="75.249062"
         y="126.96182"
         style="font-size:2.82222223px;fill:#241c1c;stroke-width:0.26458332">DrawSettings</tspan></text>
    <path
       style="fill:none;stroke:#000000;stroke-width:0.26458332px;stroke-linecap:butt;stroke-linejoin:miter;stroke-opacity:1;marker-start:url(#Arrow2Sstart)"
       d="m 121.30887,113.61978 v 9.32441"
       id="path3263"
       inkscape:connector-curvature="0" />
    <path
       style="fill:none;stroke:#000000;stroke-width:0.31509012px;stroke-linecap:butt;stroke-linejoin:miter;stroke-opacity:1;marker-start:url(#Arrow2Sstart-3-8)"
       d="M 96.595149,126.48543 H 109.81923"
       id="path3263-7-8"
       inkscape:connector-curvature="0" />
    <rect
       style="fill:#f4f3f3;fill-opacity:1;stroke:#000000;stroke-width:0.1087717;stroke-linejoin:miter;stroke-miterlimit:4;stroke-dasharray:none;stroke-dashoffset:0;stroke-opacity:1;paint-order:normal"
       id="rect7412"
       width="24.670893"
       height="20.329367"
       x="108.79764"
       y="86.404068"
       ry="0.89485621" />
    <rect
       style="fill:#e3dedb;fill-opacity:1;stroke:#000000;stroke-width:0.07543527;stroke-linejoin:miter;stroke-miterlimit:4;stroke-dasharray:none;stroke-dashoffset:0;stroke-opacity:1;paint-order:normal"
       id="rect2866-56-6"
       width="18.034204"
       height="3.7485917"
       x="111.89581"
       y="101.73964"
       ry="0.60906047" />
    <rect
       style="fill:#e3dedb;fill-opacity:1;stroke:#000000;stroke-width:0.07543527;stroke-linejoin:miter;stroke-miterlimit:4;stroke-dasharray:none;stroke-dashoffset:0;stroke-opacity:1;paint-order:normal"
       id="rect2866-56-6-9"
       width="18.034204"
       height="3.7485917"
       x="111.93898"
       y="97.041336"
       ry="0.60906053" />
    <rect
       style="fill:#e3dedb;fill-opacity:1;stroke:#000000;stroke-width:0.07543527;stroke-linejoin:miter;stroke-miterlimit:4;stroke-dasharray:none;stroke-dashoffset:0;stroke-opacity:1;paint-order:normal"
       id="rect2866-56-6-5"
       width="18.034204"
       height="3.7485917"
       x="111.93158"
       y="87.548676"
       ry="0.60906053" />
    <rect
       style="fill:#e3dedb;fill-opacity:1;stroke:#000000;stroke-width:0.07543527;stroke-linejoin:miter;stroke-miterlimit:4;stroke-dasharray:none;stroke-dashoffset:0;stroke-opacity:1;paint-order:normal"
       id="rect2866-56-6-0"
       width="18.034204"
       height="3.7485917"
       x="111.97474"
       y="92.37648"
       ry="0.60906053" />
    <flowRoot
       xml:space="preserve"
       id="flowRoot7366"
       style="font-style:normal;font-weight:normal;font-size:17.33333397px;line-height:1.25;font-family:sans-serif;letter-spacing:0px;word-spacing:0px;fill:#000000;fill-opacity:1;stroke:none"
       transform="scale(0.26458333)"><flowRegion
         id="flowRegion7368"><rect
           id="rect7370"
           width="99.852043"
           height="17.620949"
           x="371.01886"
           y="326.31387" /></flowRegion><flowPara
         id="flowPara7372">x_car</flowPara></flowRoot>    <text
       xml:space="preserve"
       style="font-style:normal;font-weight:normal;font-size:2.11666656px;line-height:1.25;font-family:sans-serif;letter-spacing:0px;word-spacing:0px;fill:#000000;fill-opacity:1;stroke:none;stroke-width:0.26458332"
       x="117.62983"
       y="90.05246"
       id="text7376"><tspan
         sodipodi:role="line"
         id="tspan7374"
         x="117.62983"
         y="90.05246"
         style="font-size:2.11666656px;stroke-width:0.26458332">x_cart</tspan></text>
    <text
       xml:space="preserve"
       style="font-style:normal;font-weight:normal;font-size:2.11666656px;line-height:1.25;font-family:sans-serif;letter-spacing:0px;word-spacing:0px;fill:#000000;fill-opacity:1;stroke:none;stroke-width:0.26458332"
       x="116.2667"
       y="94.995918"
       id="text7376-4"><tspan
         sodipodi:role="line"
         id="tspan7374-8"
         x="116.2667"
         y="94.995918"
         style="font-size:2.11666656px;stroke-width:0.26458332">velocity</tspan></text>
    <text
       xml:space="preserve"
       style="font-style:normal;font-weight:normal;font-size:2.11666656px;line-height:1.25;font-family:sans-serif;letter-spacing:0px;word-spacing:0px;fill:#000000;fill-opacity:1;stroke:none;stroke-width:0.26458332"
       x="117.90711"
       y="99.571808"
       id="text7376-7"><tspan
         sodipodi:role="line"
         id="tspan7374-1"
         x="117.90711"
         y="99.571808"
         style="font-size:2.11666656px;stroke-width:0.26458332">angle</tspan></text>
    <text
       xml:space="preserve"
       style="font-style:normal;font-weight:normal;font-size:2.11666656px;line-height:1.25;font-family:sans-serif;letter-spacing:0px;word-spacing:0px;fill:#000000;fill-opacity:1;stroke:none;stroke-width:0.26458332"
       x="115.14431"
       y="104.32034"
       id="text7376-72"><tspan
         sodipodi:role="line"
         id="tspan7374-7"
         x="115.14431"
         y="104.32034"
         style="font-size:2.11666656px;stroke-width:0.26458332">angular_vel</tspan></text>
    <rect
       style="fill:#f4f3f3;fill-opacity:1;stroke:#000000;stroke-width:0.1087717;stroke-linejoin:miter;stroke-miterlimit:4;stroke-dasharray:none;stroke-dashoffset:0;stroke-opacity:1;paint-order:normal"
       id="rect7412-2"
       width="24.670895"
       height="20.329367"
       x="65.404961"
       y="102.12009"
       ry="0.89485621" />
    <rect
       style="fill:#e3dedb;fill-opacity:1;stroke:#000000;stroke-width:0.07543527;stroke-linejoin:miter;stroke-miterlimit:4;stroke-dasharray:none;stroke-dashoffset:0;stroke-opacity:1;paint-order:normal"
       id="rect2866-56-6-2"
       width="18.034204"
       height="3.7485917"
       x="68.503128"
       y="117.45566"
       ry="0.60906053" />
    <rect
       style="fill:#e3dedb;fill-opacity:1;stroke:#000000;stroke-width:0.07543527;stroke-linejoin:miter;stroke-miterlimit:4;stroke-dasharray:none;stroke-dashoffset:0;stroke-opacity:1;paint-order:normal"
       id="rect2866-56-6-9-6"
       width="18.034204"
       height="3.7485917"
       x="68.546295"
       y="112.75737"
       ry="0.60906059" />
    <rect
       style="fill:#e3dedb;fill-opacity:1;stroke:#000000;stroke-width:0.07543527;stroke-linejoin:miter;stroke-miterlimit:4;stroke-dasharray:none;stroke-dashoffset:0;stroke-opacity:1;paint-order:normal"
       id="rect2866-56-6-5-1"
       width="18.034204"
       height="3.7485917"
       x="68.538895"
       y="103.26469"
       ry="0.60906059" />
    <rect
       style="fill:#e3dedb;fill-opacity:1;stroke:#000000;stroke-width:0.07543527;stroke-linejoin:miter;stroke-miterlimit:4;stroke-dasharray:none;stroke-dashoffset:0;stroke-opacity:1;paint-order:normal"
       id="rect2866-56-6-0-0"
       width="18.034204"
       height="3.7485917"
       x="68.582062"
       y="108.09251"
       ry="0.60906059" />
    <text
       xml:space="preserve"
       style="font-style:normal;font-weight:normal;font-size:2.11666656px;line-height:1.25;font-family:sans-serif;letter-spacing:0px;word-spacing:0px;fill:#000000;fill-opacity:1;stroke:none;stroke-width:0.26458332"
       x="71.917267"
       y="105.89059"
       id="text7376-6"><tspan
         sodipodi:role="line"
         id="tspan7374-15"
         x="71.917267"
         y="105.89059"
         style="font-size:2.11666656px;stroke-width:0.26458332">projection</tspan></text>
    <text
       xml:space="preserve"
       style="font-style:normal;font-weight:normal;font-size:2.11666656px;line-height:1.25;font-family:sans-serif;letter-spacing:0px;word-spacing:0px;fill:#000000;fill-opacity:1;stroke:none;stroke-width:0.26458332"
       x="74.827599"
       y="110.58985"
       id="text7376-4-9"><tspan
         sodipodi:role="line"
         id="tspan7374-8-4"
         x="74.827599"
         y="110.58985"
         style="font-size:2.11666656px;stroke-width:0.26458332">view</tspan></text>
    <text
       xml:space="preserve"
       style="font-style:normal;font-weight:normal;font-size:2.11666656px;line-height:1.25;font-family:sans-serif;letter-spacing:0px;word-spacing:0px;fill:#000000;fill-opacity:1;stroke:none;stroke-width:0.26458332"
       x="73.659737"
       y="115.40993"
       id="text7376-7-9"><tspan
         sodipodi:role="line"
         id="tspan7374-1-0"
         x="73.659737"
         y="115.40993"
         style="font-size:2.11666656px;stroke-width:0.26458332">shader</tspan></text>
    <text
       xml:space="preserve"
       style="font-style:normal;font-weight:normal;font-size:2.11666656px;line-height:1.25;font-family:sans-serif;letter-spacing:0px;word-spacing:0px;fill:#000000;fill-opacity:1;stroke:none;stroke-width:0.26458332"
       x="72.972618"
       y="119.91427"
       id="text7376-72-9"><tspan
         sodipodi:role="line"
         id="tspan7374-7-1"
         x="72.972618"
         y="119.91427"
         style="font-size:2.11666656px;stroke-width:0.26458332">borders</tspan></text>
    <path
       style="fill:none;stroke:#000000;stroke-width:0.28791961;stroke-linecap:butt;stroke-linejoin:miter;stroke-miterlimit:4;stroke-dasharray:2.30335686,0.28791961;stroke-opacity:1;marker-start:url(#Arrow2Sstart-3-8-1-0-9-1);stroke-dashoffset:0"
       d="m 142.31296,154.95269 -23.27467,10.38318"
       id="path3263-7-8-2-8-6-9"
       inkscape:connector-curvature="0" />
    <path
       style="fill:none;stroke:#000000;stroke-width:0.28;stroke-linecap:butt;stroke-linejoin:miter;stroke-opacity:1;marker-start:url(#Arrow2Sstart-3-8-1-0-9-1-7);stroke-miterlimit:4;stroke-dasharray:1.67999999,0.28;stroke-dashoffset:0"
       d="m 119.1516,155.05413 -6.827,14.04218"
       id="path3263-7-8-2-8-6-9-6"
       inkscape:connector-curvature="0" />
    <path
       style="fill:none;stroke:#000000;stroke-width:0.28;stroke-linecap:butt;stroke-linejoin:miter;stroke-miterlimit:4;stroke-dasharray:2.23999999,0.28;stroke-opacity:1;marker-start:url(#Arrow2Sstart-3-8-1-0-9-1-7-7);stroke-dashoffset:0"
       d="m 103.90417,143.0495 7.32185,22.92143"
       id="path3263-7-8-2-8-6-9-6-6"
       inkscape:connector-curvature="0" />
    <path
       style="fill:none;stroke:#000000;stroke-width:0.28;stroke-linecap:butt;stroke-linejoin:miter;stroke-miterlimit:4;stroke-dasharray:1.67999999,0.28;stroke-opacity:1;marker-start:url(#Arrow2Sstart-3-8-1-0-9-1-7-7-9);stroke-dashoffset:0"
       d="m 85.393632,142.51444 25.822258,23.44474"
       id="path3263-7-8-2-8-6-9-6-6-8"
       inkscape:connector-curvature="0" />
    <rect
       style="fill:#f0eded;fill-opacity:1;stroke:#000000;stroke-width:0.1;stroke-linejoin:miter;stroke-miterlimit:4;stroke-dasharray:none;stroke-dashoffset:0;stroke-opacity:1;paint-order:normal"
       id="rect2866-63-7"
       width="22.89361"
       height="5.189218"
       x="100.88451"
       y="165.10228"
       ry="0.84312928" />
    <text
       xml:space="preserve"
       style="font-style:normal;font-weight:normal;font-size:2.82222223px;line-height:1.25;font-family:sans-serif;letter-spacing:0px;word-spacing:0px;fill:#241c1c;fill-opacity:1;stroke:none;stroke-width:0.26458332"
       x="102.77704"
       y="168.52104"
       id="text2870-2-7"><tspan
         sodipodi:role="line"
         id="tspan2868-06-1"
         x="102.77704"
         y="168.52104"
         style="font-size:2.82222223px;fill:#241c1c;stroke-width:0.26458332">RenderObject</tspan></text>
    <rect
       style="fill:#c8beb7;fill-opacity:1;stroke:#000000;stroke-width:0.1;stroke-linejoin:miter;stroke-miterlimit:4;stroke-dasharray:none;stroke-dashoffset:0;stroke-opacity:1;paint-order:normal"
       id="rect2866-5-5"
       width="22.89361"
       height="5.189218"
       x="65.738663"
       y="136.92633"
       ry="0.84312928" />
    <text
       xml:space="preserve"
       style="font-style:normal;font-weight:normal;font-size:2.82222223px;line-height:1.25;font-family:sans-serif;letter-spacing:0px;word-spacing:0px;fill:#241c1c;fill-opacity:1;stroke:none;stroke-width:0.26458332"
       x="73.614075"
       y="140.46721"
       id="text2870-0-6"><tspan
         sodipodi:role="line"
         id="tspan2868-3-3"
         x="73.614075"
         y="140.46721"
         style="font-size:2.82222223px;fill:#241c1c;stroke-width:0.26458332">Stars</tspan></text>
    <rect
       style="fill:#f4f3f3;fill-opacity:1;stroke:#000000;stroke-width:0.1087717;stroke-linejoin:miter;stroke-miterlimit:4;stroke-dasharray:none;stroke-dashoffset:0;stroke-opacity:1;paint-order:normal"
       id="rect7412-3"
       width="24.670895"
       height="20.329367"
       x="150.23752"
       y="101.55566"
       ry="0.89485621" />
    <rect
       style="fill:#e3dedb;fill-opacity:1;stroke:#000000;stroke-width:0.07543527;stroke-linejoin:miter;stroke-miterlimit:4;stroke-dasharray:none;stroke-dashoffset:0;stroke-opacity:1;paint-order:normal"
       id="rect2866-56-6-90"
       width="18.034204"
       height="3.7485917"
       x="153.33569"
       y="116.89123"
       ry="0.60906053" />
    <rect
       style="fill:#e3dedb;fill-opacity:1;stroke:#000000;stroke-width:0.07543527;stroke-linejoin:miter;stroke-miterlimit:4;stroke-dasharray:none;stroke-dashoffset:0;stroke-opacity:1;paint-order:normal"
       id="rect2866-56-6-9-8"
       width="18.034204"
       height="3.7485917"
       x="153.37886"
       y="112.19292"
       ry="0.60906059" />
    <rect
       style="fill:#e3dedb;fill-opacity:1;stroke:#000000;stroke-width:0.07543527;stroke-linejoin:miter;stroke-miterlimit:4;stroke-dasharray:none;stroke-dashoffset:0;stroke-opacity:1;paint-order:normal"
       id="rect2866-56-6-5-8"
       width="18.034204"
       height="3.7485917"
       x="153.37146"
       y="102.70026"
       ry="0.60906059" />
    <rect
       style="fill:#e3dedb;fill-opacity:1;stroke:#000000;stroke-width:0.07543527;stroke-linejoin:miter;stroke-miterlimit:4;stroke-dasharray:none;stroke-dashoffset:0;stroke-opacity:1;paint-order:normal"
       id="rect2866-56-6-0-5"
       width="18.034204"
       height="3.7485917"
       x="153.41463"
       y="107.52808"
       ry="0.60906059" />
    <text
       xml:space="preserve"
       style="font-style:normal;font-weight:normal;font-size:2.11666656px;line-height:1.25;font-family:sans-serif;letter-spacing:0px;word-spacing:0px;fill:#000000;fill-opacity:1;stroke:none;stroke-width:0.26458332"
       x="157.42931"
       y="105.11774"
       id="text7376-0"><tspan
         sodipodi:role="line"
         id="tspan7374-9"
         x="157.42931"
         y="105.11774"
         style="font-size:2.11666656px;stroke-width:0.26458332">cart_mass</tspan></text>
    <text
       xml:space="preserve"
       style="font-style:normal;font-weight:normal;font-size:2.11666656px;line-height:1.25;font-family:sans-serif;letter-spacing:0px;word-spacing:0px;fill:#000000;fill-opacity:1;stroke:none;stroke-width:0.26458332"
       x="156.8432"
       y="109.97483"
       id="text7376-4-6"><tspan
         sodipodi:role="line"
         id="tspan7374-8-3"
         x="156.8432"
         y="109.97483"
         style="font-size:2.11666656px;stroke-width:0.26458332">rod_length</tspan></text>
    <text
       xml:space="preserve"
       style="font-style:normal;font-weight:normal;font-size:2.11666656px;line-height:1.25;font-family:sans-serif;letter-spacing:0px;word-spacing:0px;fill:#000000;fill-opacity:1;stroke:none;stroke-width:0.26458332"
       x="157.27489"
       y="114.7234"
       id="text7376-7-8"><tspan
         sodipodi:role="line"
         id="tspan7374-1-5"
         x="157.27489"
         y="114.7234"
         style="font-size:2.11666656px;stroke-width:0.26458332">ball_mass</tspan></text>
    <text
       xml:space="preserve"
       style="font-style:normal;font-weight:normal;font-size:2.11666656px;line-height:1.25;font-family:sans-serif;letter-spacing:0px;word-spacing:0px;fill:#000000;fill-opacity:1;stroke:none;stroke-width:0.26458332"
       x="159.60599"
       y="119.3856"
       id="text7376-72-6"><tspan
         sodipodi:role="line"
         id="tspan7374-7-11"
         x="159.60599"
         y="119.3856"
         style="font-size:2.11666656px;stroke-width:0.26458332">force</tspan></text>
    <rect
       style="fill:#c8beb7;fill-opacity:1;stroke:#000000;stroke-width:0.1;stroke-linejoin:miter;stroke-miterlimit:4;stroke-dasharray:none;stroke-dashoffset:0;stroke-opacity:1;paint-order:normal"
       id="rect2866-4-5"
       width="22.89361"
       height="5.189218"
       x="147.03802"
       y="130.5482"
       ry="0.84312928" />
    <text
       xml:space="preserve"
       style="font-style:normal;font-weight:normal;font-size:2.82222223px;line-height:1.25;font-family:sans-serif;letter-spacing:0px;word-spacing:0px;fill:#241c1c;fill-opacity:1;stroke:none;stroke-width:0.26458332"
       x="152.59354"
       y="134.21117"
       id="text2870-52-9"><tspan
         sodipodi:role="line"
         id="tspan2868-54-8"
         x="152.59354"
         y="134.21117"
         style="font-size:2.82222223px;fill:#241c1c;stroke-width:0.26458332">Renderer</tspan></text>
  </g>
</svg>
